ISO-10303-21;
HEADER;
FILE_DESCRIPTION (( 'STEP AP214' ),
    '1' );
FILE_NAME ('6E25F28D-DE9E-4487-9511-A571BA408F61.STEP',
    '2022-10-26T12:43:18',
    ( '' ),
    ( '' ),
    'SwSTEP 2.0',
    'SolidWorks 2022',
    '' );
FILE_SCHEMA (( 'AUTOMOTIVE_DESIGN' ));
ENDSEC;

DATA;
#1 = PRESENTATION_LAYER_ASSIGNMENT (  '', '', ( #861 ) ) ;
#2 = UNCERTAINTY_MEASURE_WITH_UNIT (LENGTH_MEASURE( 1.000000000000000082E-05 ), #971, 'distance_accuracy_value', 'NONE');
#3 = MECHANICAL_DESIGN_GEOMETRIC_PRESENTATION_REPRESENTATION (  '', ( #161 ), #1126 ) ;
#4 = PLANE ( 'NONE',  #429 ) ;
#5 = DIRECTION ( 'NONE',  ( -1.000000000000000000, 0.0000000000000000000, 0.0000000000000000000 ) ) ;
#6 = EDGE_CURVE ( 'NONE', #599, #1020, #70, .T. ) ;
#7 =( LENGTH_UNIT ( ) NAMED_UNIT ( * ) SI_UNIT ( .MILLI., .METRE. ) );
#8 = EDGE_LOOP ( 'NONE', ( #76, #522 ) ) ;
#9 = DIRECTION ( 'NONE',  ( -1.000000000000000000, 1.275531967630000069E-16, 0.0000000000000000000 ) ) ;
#10 = FILL_AREA_STYLE_COLOUR ( '', #958 ) ;
#11 =( LENGTH_UNIT ( ) NAMED_UNIT ( * ) SI_UNIT ( .MILLI., .METRE. ) );
#12 = DIRECTION ( 'NONE',  ( 0.0000000000000000000, 0.0000000000000000000, -1.000000000000000000 ) ) ;
#13 = EDGE_CURVE ( 'NONE', #36, #279, #247, .T. ) ;
#14 = ORIENTED_EDGE ( 'NONE', *, *, #13, .T. ) ;
#15 = DIRECTION ( 'NONE',  ( -1.000000000000000000, 0.0000000000000000000, 0.0000000000000000000 ) ) ;
#16 = SURFACE_STYLE_USAGE ( .BOTH. , #842 ) ;
#17 = FILL_AREA_STYLE_COLOUR ( '', #514 ) ;
#18 = SURFACE_STYLE_USAGE ( .BOTH. , #397 ) ;
#19 = ORIENTED_EDGE ( 'NONE', *, *, #796, .T. ) ;
#20 = STYLED_ITEM ( 'NONE', ( #389 ), #23 ) ;
#21 = CARTESIAN_POINT ( 'NONE',  ( -3.399999999999999911, 2.350000000000000089, 0.0000000000000000000 ) ) ;
#22 = PRESENTATION_LAYER_ASSIGNMENT (  '', '', ( #745 ) ) ;
#23 = ADVANCED_FACE ( 'NONE', ( #703 ), #622, .F. ) ;
#24 = FILL_AREA_STYLE_COLOUR ( '', #1158 ) ;
#25 = AXIS2_PLACEMENT_3D ( 'NONE', #815, #288, #562 ) ;
#26 = PRESENTATION_STYLE_ASSIGNMENT (( #46 ) ) ;
#27 = DIRECTION ( 'NONE',  ( -0.0000000000000000000, -0.0000000000000000000, -1.000000000000000000 ) ) ;
#28 = FILL_AREA_STYLE ('',( #732 ) ) ;
#29 = ORIENTED_EDGE ( 'NONE', *, *, #437, .T. ) ;
#30 = CARTESIAN_POINT ( 'NONE',  ( -2.799999999999999822, -2.350000000000000089, 0.4000000000000000222 ) ) ;
#31 = EDGE_CURVE ( 'NONE', #101, #826, #746, .T. ) ;
#32 = LINE ( 'NONE', #120, #855 ) ;
#33 = MANIFOLD_SOLID_BREP ( '1', #778 ) ;
#34 = SURFACE_STYLE_USAGE ( .BOTH. , #306 ) ;
#35 = FILL_AREA_STYLE_COLOUR ( '', #560 ) ;
#36 = VERTEX_POINT ( 'NONE', #829 ) ;
#37 = DIRECTION ( 'NONE',  ( -0.0000000000000000000, -1.000000000000000000, 0.0000000000000000000 ) ) ;
#38 = FILL_AREA_STYLE_COLOUR ( '', #1105 ) ;
#39 = FACE_OUTER_BOUND ( 'NONE', #211, .T. ) ;
#40 = DIRECTION ( 'NONE',  ( 0.0000000000000000000, 1.000000000000000000, 0.0000000000000000000 ) ) ;
#41 = VERTEX_POINT ( 'NONE', #1089 ) ;
#42 = UNCERTAINTY_MEASURE_WITH_UNIT (LENGTH_MEASURE( 1.000000000000000082E-05 ), #7, 'distance_accuracy_value', 'NONE');
#43 =( GEOMETRIC_REPRESENTATION_CONTEXT ( 3 ) GLOBAL_UNCERTAINTY_ASSIGNED_CONTEXT ( ( #933 ) ) GLOBAL_UNIT_ASSIGNED_CONTEXT ( ( #645, #917, #537 ) ) REPRESENTATION_CONTEXT ( 'NONE', 'WORKASPACE' ) );
#44 = VECTOR ( 'NONE', #671, 1000.000000000000000 ) ;
#45 = AXIS2_PLACEMENT_3D ( 'NONE', #1128, #932, #754 ) ;
#46 = SURFACE_STYLE_USAGE ( .BOTH. , #497 ) ;
#47 = MECHANICAL_DESIGN_GEOMETRIC_PRESENTATION_REPRESENTATION (  '', ( #938 ), #393 ) ;
#48 = DIRECTION ( 'NONE',  ( 0.0000000000000000000, 0.0000000000000000000, 1.000000000000000000 ) ) ;
#49 = AXIS2_PLACEMENT_3D ( 'NONE', #534, #631, #170 ) ;
#50 = CARTESIAN_POINT ( 'NONE',  ( -3.399999999999999911, -2.350000000000000089, 7.299999999999999822 ) ) ;
#51 = STYLED_ITEM ( 'NONE', ( #151 ), #1140 ) ;
#52 = EDGE_LOOP ( 'NONE', ( #244, #1150, #398, #283 ) ) ;
#53 = ADVANCED_FACE ( 'NONE', ( #1093 ), #564, .F. ) ;
#54 = CARTESIAN_POINT ( 'NONE',  ( 3.399999999999999911, 2.350000000000000089, 7.299999999999999822 ) ) ;
#55 = ORIENTED_EDGE ( 'NONE', *, *, #505, .F. ) ;
#56 = CARTESIAN_POINT ( 'NONE',  ( 2.540000000000000036, 1.590000000000000080, -2.600000000000000533 ) ) ;
#57 = SURFACE_STYLE_FILL_AREA ( #344 ) ;
#58 = CARTESIAN_POINT ( 'NONE',  ( 3.248268353513850471E-15, -0.9499999999999999556, 0.4000000000000001887 ) ) ;
#59 = ORIENTED_EDGE ( 'NONE', *, *, #31, .T. ) ;
#60 = DIRECTION ( 'NONE',  ( -1.000000000000000000, 0.0000000000000000000, 0.0000000000000000000 ) ) ;
#61 =( NAMED_UNIT ( * ) PLANE_ANGLE_UNIT ( ) SI_UNIT ( $, .RADIAN. ) );
#62 = MECHANICAL_DESIGN_GEOMETRIC_PRESENTATION_REPRESENTATION (  '', ( #651 ), #43 ) ;
#63 = EDGE_CURVE ( 'NONE', #302, #1057, #310, .T. ) ;
#64 = PRODUCT ( '6E25F28D-DE9E-4487-9511-A571BA408F61', '6E25F28D-DE9E-4487-9511-A571BA408F61', '', ( #285 ) ) ;
#65 = SURFACE_STYLE_USAGE ( .BOTH. , #613 ) ;
#66 = ORIENTED_EDGE ( 'NONE', *, *, #209, .F. ) ;
#67 = PRESENTATION_LAYER_ASSIGNMENT (  '', '', ( #654 ) ) ;
#68 = DIRECTION ( 'NONE',  ( 1.000000000000000000, 0.0000000000000000000, -0.0000000000000000000 ) ) ;
#69 = COLOUR_RGB ( '',0.7490196078431372584, 0.7490196078431372584, 0.7490196078431372584 ) ;
#70 = LINE ( 'NONE', #700, #794 ) ;
#71 = CIRCLE ( 'NONE', #375, 0.2499999999999997780 ) ;
#72 = SURFACE_STYLE_FILL_AREA ( #851 ) ;
#73 = ORIENTED_EDGE ( 'NONE', *, *, #806, .T. ) ;
#74 = DIRECTION ( 'NONE',  ( 1.000000000000000000, 1.275531967630000069E-16, 0.0000000000000000000 ) ) ;
#75 =( LENGTH_UNIT ( ) NAMED_UNIT ( * ) SI_UNIT ( .MILLI., .METRE. ) );
#76 = ORIENTED_EDGE ( 'NONE', *, *, #580, .T. ) ;
#77 = DIRECTION ( 'NONE',  ( 0.0000000000000000000, 0.0000000000000000000, 1.000000000000000000 ) ) ;
#78 = STYLED_ITEM ( 'NONE', ( #26 ), #332 ) ;
#79 =( NAMED_UNIT ( * ) PLANE_ANGLE_UNIT ( ) SI_UNIT ( $, .RADIAN. ) );
#80 = ORIENTED_EDGE ( 'NONE', *, *, #385, .T. ) ;
#81 = MECHANICAL_DESIGN_GEOMETRIC_PRESENTATION_REPRESENTATION (  '', ( #654 ), #1066 ) ;
#82 = PRESENTATION_LAYER_ASSIGNMENT (  '', '', ( #938 ) ) ;
#83 = EDGE_CURVE ( 'NONE', #265, #1051, #678, .T. ) ;
#84 = VECTOR ( 'NONE', #1146, 1000.000000000000000 ) ;
#85 = FILL_AREA_STYLE ('',( #471 ) ) ;
#86 = FILL_AREA_STYLE ('',( #172 ) ) ;
#87 = FILL_AREA_STYLE ('',( #896 ) ) ;
#88 = CARTESIAN_POINT ( 'NONE',  ( 3.248268353513850471E-15, -0.9499999999999999556, -2.600000000000000533 ) ) ;
#89 = SURFACE_SIDE_STYLE ('',( #1060 ) ) ;
#90 = SURFACE_STYLE_FILL_AREA ( #535 ) ;
#91 = UNCERTAINTY_MEASURE_WITH_UNIT (LENGTH_MEASURE( 1.000000000000000082E-05 ), #503, 'distance_accuracy_value', 'NONE');
#92 =( NAMED_UNIT ( * ) SI_UNIT ( $, .STERADIAN. ) SOLID_ANGLE_UNIT ( ) );
#93 = PLANE ( 'NONE',  #603 ) ;
#94 = VERTEX_POINT ( 'NONE', #943 ) ;
#95 =( LENGTH_UNIT ( ) NAMED_UNIT ( * ) SI_UNIT ( .MILLI., .METRE. ) );
#96 = CARTESIAN_POINT ( 'NONE',  ( 2.299999999999999822, -1.100000000000000089, 7.799999999999999822 ) ) ;
#97 = ADVANCED_FACE ( 'NONE', ( #39 ), #127, .F. ) ;
#98 = MECHANICAL_DESIGN_GEOMETRIC_PRESENTATION_REPRESENTATION (  '', ( #20 ), #289 ) ;
#99 = CARTESIAN_POINT ( 'NONE',  ( 3.399999999999999911, -2.350000000000000533, 0.0000000000000000000 ) ) ;
#100 = PRESENTATION_LAYER_ASSIGNMENT (  '', '', ( #1177 ) ) ;
#101 = VERTEX_POINT ( 'NONE', #490 ) ;
#102 = LINE ( 'NONE', #467, #554 ) ;
#103 = PRESENTATION_LAYER_ASSIGNMENT (  '', '', ( #706 ) ) ;
#104 = DIRECTION ( 'NONE',  ( 1.000000000000000000, 0.0000000000000000000, 0.0000000000000000000 ) ) ;
#105 = SURFACE_STYLE_USAGE ( .BOTH. , #555 ) ;
#106 = ORIENTED_EDGE ( 'NONE', *, *, #469, .T. ) ;
#107 = PRESENTATION_STYLE_ASSIGNMENT (( #550 ) ) ;
#108 = FACE_OUTER_BOUND ( 'NONE', #129, .T. ) ;
#109 = DIRECTION ( 'NONE',  ( 1.845450506358299902E-16, 1.000000000000000000, 0.0000000000000000000 ) ) ;
#110 =( NAMED_UNIT ( * ) PLANE_ANGLE_UNIT ( ) SI_UNIT ( $, .RADIAN. ) );
#111 = EDGE_LOOP ( 'NONE', ( #199, #1110, #716, #1042 ) ) ;
#112 = DIRECTION ( 'NONE',  ( -1.000000000000000000, 0.0000000000000000000, 0.0000000000000000000 ) ) ;
#113 = SURFACE_SIDE_STYLE ('',( #325 ) ) ;
#114 = DIRECTION ( 'NONE',  ( -0.7986355100472930513, -0.6018150231520480453, 0.0000000000000000000 ) ) ;
#115 = ORIENTED_EDGE ( 'NONE', *, *, #552, .F. ) ;
#116 = COLOUR_RGB ( '',0.8666666666666666963, 0.7019607843137254388, 0.3450980392156862697 ) ;
#117 = EDGE_CURVE ( 'NONE', #756, #190, #1129, .T. ) ;
#118 = DIRECTION ( 'NONE',  ( -1.000000000000000000, 0.0000000000000000000, 0.0000000000000000000 ) ) ;
#119 = COLOUR_RGB ( '',0.7490196078431372584, 0.7490196078431372584, 0.7490196078431372584 ) ;
#120 = CARTESIAN_POINT ( 'NONE',  ( 1.719563188713240098, -1.787817641605140118, 8.199999999999999289 ) ) ;
#121 = VECTOR ( 'NONE', #661, 1000.000000000000000 ) ;
#122 = PRESENTATION_STYLE_ASSIGNMENT (( #34 ) ) ;
#123 = ORIENTED_EDGE ( 'NONE', *, *, #13, .F. ) ;
#124 = CARTESIAN_POINT ( 'NONE',  ( -3.399999999999999911, 2.349999999999999645, 0.0000000000000000000 ) ) ;
#125 = UNCERTAINTY_MEASURE_WITH_UNIT (LENGTH_MEASURE( 1.000000000000000082E-05 ), #362, 'distance_accuracy_value', 'NONE');
#126 = CARTESIAN_POINT ( 'NONE',  ( 3.200000000000000178, -1.100000000000000089, 7.299999999999999822 ) ) ;
#127 = PLANE ( 'NONE',  #1102 ) ;
#128 = DIRECTION ( 'NONE',  ( 0.0000000000000000000, -0.0000000000000000000, -1.000000000000000000 ) ) ;
#129 = EDGE_LOOP ( 'NONE', ( #860, #1149, #658, #1008 ) ) ;
#130 = EDGE_CURVE ( 'NONE', #614, #672, #686, .T. ) ;
#131 = ORIENTED_EDGE ( 'NONE', *, *, #63, .F. ) ;
#132 = FILL_AREA_STYLE_COLOUR ( '', #879 ) ;
#133 = SURFACE_STYLE_FILL_AREA ( #674 ) ;
#134 = UNCERTAINTY_MEASURE_WITH_UNIT (LENGTH_MEASURE( 1.000000000000000082E-05 ), #848, 'distance_accuracy_value', 'NONE');
#135 =( GEOMETRIC_REPRESENTATION_CONTEXT ( 3 ) GLOBAL_UNCERTAINTY_ASSIGNED_CONTEXT ( ( #134 ) ) GLOBAL_UNIT_ASSIGNED_CONTEXT ( ( #848, #767, #136 ) ) REPRESENTATION_CONTEXT ( 'NONE', 'WORKASPACE' ) );
#136 =( NAMED_UNIT ( * ) SI_UNIT ( $, .STERADIAN. ) SOLID_ANGLE_UNIT ( ) );
#137 = VECTOR ( 'NONE', #303, 1000.000000000000000 ) ;
#138 = CARTESIAN_POINT ( 'NONE',  ( 2.290000000000000480, 1.590000000000000080, -2.600000000000000533 ) ) ;
#139 = STYLED_ITEM ( 'NONE', ( #434 ), #882 ) ;
#140 =( NAMED_UNIT ( * ) PLANE_ANGLE_UNIT ( ) SI_UNIT ( $, .RADIAN. ) );
#141 = ORIENTED_EDGE ( 'NONE', *, *, #437, .F. ) ;
#142 = PRESENTATION_STYLE_ASSIGNMENT (( #697 ) ) ;
#143 = SURFACE_STYLE_FILL_AREA ( #237 ) ;
#144 = DIRECTION ( 'NONE',  ( 0.0000000000000000000, 0.0000000000000000000, 1.000000000000000000 ) ) ;
#145 = SURFACE_STYLE_USAGE ( .BOTH. , #1141 ) ;
#146 =( NAMED_UNIT ( * ) SI_UNIT ( $, .STERADIAN. ) SOLID_ANGLE_UNIT ( ) );
#147 = EDGE_LOOP ( 'NONE', ( #696, #313, #1065, #339 ) ) ;
#148 =( LENGTH_UNIT ( ) NAMED_UNIT ( * ) SI_UNIT ( .MILLI., .METRE. ) );
#149 = EDGE_CURVE ( 'NONE', #41, #599, #1115, .T. ) ;
#150 =( NAMED_UNIT ( * ) PLANE_ANGLE_UNIT ( ) SI_UNIT ( $, .RADIAN. ) );
#151 = PRESENTATION_STYLE_ASSIGNMENT (( #1154 ) ) ;
#152 = ORIENTED_EDGE ( 'NONE', *, *, #572, .F. ) ;
#153 = FACE_OUTER_BOUND ( 'NONE', #111, .T. ) ;
#154 = STYLED_ITEM ( 'NONE', ( #702 ), #232 ) ;
#155 = AXIS2_PLACEMENT_3D ( 'NONE', #163, #450, #710 ) ;
#156 = MECHANICAL_DESIGN_GEOMETRIC_PRESENTATION_REPRESENTATION (  '', ( #1177 ), #762 ) ;
#157 = VERTEX_POINT ( 'NONE', #843 ) ;
#158 = VECTOR ( 'NONE', #394, 1000.000000000000000 ) ;
#159 = VECTOR ( 'NONE', #455, 1000.000000000000000 ) ;
#160 = EDGE_LOOP ( 'NONE', ( #1035, #868, #1101, #610 ) ) ;
#161 = STYLED_ITEM ( 'NONE', ( #168 ), #594 ) ;
#162 = DIRECTION ( 'NONE',  ( 1.275531967630000069E-16, -1.000000000000000000, 0.0000000000000000000 ) ) ;
#163 = CARTESIAN_POINT ( 'NONE',  ( -2.540000000000000036, 1.590000000000000080, -2.600000000000000533 ) ) ;
#164 = ORIENTED_EDGE ( 'NONE', *, *, #452, .T. ) ;
#165 = FILL_AREA_STYLE_COLOUR ( '', #483 ) ;
#166 = DIRECTION ( 'NONE',  ( 0.0000000000000000000, 0.0000000000000000000, 1.000000000000000000 ) ) ;
#167 = EDGE_CURVE ( 'NONE', #420, #41, #338, .T. ) ;
#168 = PRESENTATION_STYLE_ASSIGNMENT (( #792 ) ) ;
#169 = ORIENTED_EDGE ( 'NONE', *, *, #526, .T. ) ;
#170 = DIRECTION ( 'NONE',  ( 1.000000000000000000, 0.0000000000000000000, -0.0000000000000000000 ) ) ;
#171 = CYLINDRICAL_SURFACE ( 'NONE', #45, 0.2500000000000000000 ) ;
#172 = FILL_AREA_STYLE_COLOUR ( '', #69 ) ;
#173 = AXIS2_PLACEMENT_3D ( 'NONE', #928, #1136, #234 ) ;
#174 = VECTOR ( 'NONE', #1087, 1000.000000000000000 ) ;
#175 = PRESENTATION_LAYER_ASSIGNMENT (  '', '', ( #670 ) ) ;
#176 = SURFACE_STYLE_USAGE ( .BOTH. , #1076 ) ;
#177 = MECHANICAL_DESIGN_GEOMETRIC_PRESENTATION_REPRESENTATION (  '', ( #200 ), #220 ) ;
#178 = AXIS2_PLACEMENT_3D ( 'NONE', #890, #162, #74 ) ;
#179 =( NAMED_UNIT ( * ) SI_UNIT ( $, .STERADIAN. ) SOLID_ANGLE_UNIT ( ) );
#180 = DIRECTION ( 'NONE',  ( -0.0000000000000000000, -0.0000000000000000000, -1.000000000000000000 ) ) ;
#181 = CARTESIAN_POINT ( 'NONE',  ( 2.299999999999999822, -1.100000000000000089, 8.199999999999999289 ) ) ;
#182 = FACE_OUTER_BOUND ( 'NONE', #147, .T. ) ;
#183 = ORIENTED_EDGE ( 'NONE', *, *, #421, .F. ) ;
#184 = ADVANCED_FACE ( 'NONE', ( #966 ), #251, .T. ) ;
#185 = SURFACE_SIDE_STYLE ('',( #90 ) ) ;
#186 = UNCERTAINTY_MEASURE_WITH_UNIT (LENGTH_MEASURE( 1.000000000000000082E-05 ), #911, 'distance_accuracy_value', 'NONE');
#187 = DIRECTION ( 'NONE',  ( -1.000000000000000000, 0.0000000000000000000, 0.0000000000000000000 ) ) ;
#188 = PLANE ( 'NONE',  #1063 ) ;
#189 = PRESENTATION_STYLE_ASSIGNMENT (( #372 ) ) ;
#190 = VERTEX_POINT ( 'NONE', #785 ) ;
#191 = CARTESIAN_POINT ( 'NONE',  ( 1.719563188713238544, -1.787817641605138785, 8.199999999999999289 ) ) ;
#192 = CARTESIAN_POINT ( 'NONE',  ( -3.399999999999999911, 2.349999999999999645, 7.299999999999999822 ) ) ;
#193 = CARTESIAN_POINT ( 'NONE',  ( 2.540000000000000036, 1.590000000000000080, 0.4000000000000001887 ) ) ;
#194 = PRESENTATION_LAYER_ASSIGNMENT (  '', '', ( #20 ) ) ;
#195 = SURFACE_STYLE_USAGE ( .BOTH. , #371 ) ;
#196 = PRESENTATION_LAYER_ASSIGNMENT (  '', '', ( #350 ) ) ;
#197 = LINE ( 'NONE', #905, #241 ) ;
#198 = AXIS2_PLACEMENT_3D ( 'NONE', #683, #1030, #942 ) ;
#199 = ORIENTED_EDGE ( 'NONE', *, *, #407, .F. ) ;
#200 = STYLED_ITEM ( 'NONE', ( #750 ), #777 ) ;
#201 = FACE_OUTER_BOUND ( 'NONE', #52, .T. ) ;
#202 = UNCERTAINTY_MEASURE_WITH_UNIT (LENGTH_MEASURE( 1.000000000000000082E-05 ), #333, 'distance_accuracy_value', 'NONE');
#203 = MECHANICAL_DESIGN_GEOMETRIC_PRESENTATION_REPRESENTATION (  '', ( #51 ), #1014 ) ;
#204 = DIRECTION ( 'NONE',  ( 1.000000000000000000, -0.0000000000000000000, 0.0000000000000000000 ) ) ;
#205 = CARTESIAN_POINT ( 'NONE',  ( 2.290000000000000480, 1.590000000000000080, 0.4000000000000001887 ) ) ;
#206 = VERTEX_POINT ( 'NONE', #246 ) ;
#207 = CARTESIAN_POINT ( 'NONE',  ( 3.200000000000000178, -1.100000000000000089, 8.199999999999999289 ) ) ;
#208 = SURFACE_STYLE_FILL_AREA ( #1038 ) ;
#209 = EDGE_CURVE ( 'NONE', #302, #101, #708, .T. ) ;
#210 = CARTESIAN_POINT ( 'NONE',  ( 1.719563188713236768, -1.787817641605137231, 7.799999999999999822 ) ) ;
#211 = EDGE_LOOP ( 'NONE', ( #1075, #1138 ) ) ;
#212 = CARTESIAN_POINT ( 'NONE',  ( 2.790000000000000036, 1.590000000000000080, -2.600000000000000533 ) ) ;
#213 = SURFACE_SIDE_STYLE ('',( #1022 ) ) ;
#214 = COLOUR_RGB ( '',0.0000000000000000000, 0.0000000000000000000, 1.000000000000000000 ) ;
#215 =( NAMED_UNIT ( * ) SI_UNIT ( $, .STERADIAN. ) SOLID_ANGLE_UNIT ( ) );
#216 = ORIENTED_EDGE ( 'NONE', *, *, #984, .F. ) ;
#217 = CIRCLE ( 'NONE', #369, 0.2499999999999997780 ) ;
#218 = CARTESIAN_POINT ( 'NONE',  ( -2.540000000000000036, 1.590000000000000080, -2.600000000000000533 ) ) ;
#219 = VECTOR ( 'NONE', #822, 1000.000000000000000 ) ;
#220 =( GEOMETRIC_REPRESENTATION_CONTEXT ( 3 ) GLOBAL_UNCERTAINTY_ASSIGNED_CONTEXT ( ( #864 ) ) GLOBAL_UNIT_ASSIGNED_CONTEXT ( ( #148, #395, #964 ) ) REPRESENTATION_CONTEXT ( 'NONE', 'WORKASPACE' ) );
#221 = DIRECTION ( 'NONE',  ( 1.000000000000000000, 0.0000000000000000000, 0.0000000000000000000 ) ) ;
#222 = CARTESIAN_POINT ( 'NONE',  ( -2.799999999999999822, -2.350000000000000089, 0.0000000000000000000 ) ) ;
#223 = ORIENTED_EDGE ( 'NONE', *, *, #595, .T. ) ;
#224 = DIRECTION ( 'NONE',  ( -0.0000000000000000000, -0.0000000000000000000, -1.000000000000000000 ) ) ;
#225 = UNCERTAINTY_MEASURE_WITH_UNIT (LENGTH_MEASURE( 1.000000000000000082E-05 ), #340, 'distance_accuracy_value', 'NONE');
#226 = EDGE_CURVE ( 'NONE', #1020, #384, #532, .T. ) ;
#227 = CARTESIAN_POINT ( 'NONE',  ( -2.290000000000000480, 1.590000000000000080, -2.600000000000000533 ) ) ;
#228 = SURFACE_STYLE_USAGE ( .BOTH. , #949 ) ;
#229 = ORIENTED_EDGE ( 'NONE', *, *, #31, .F. ) ;
#230 = DIRECTION ( 'NONE',  ( 0.0000000000000000000, 0.0000000000000000000, -1.000000000000000000 ) ) ;
#231 = LINE ( 'NONE', #296, #331 ) ;
#232 = ADVANCED_FACE ( 'NONE', ( #787 ), #1056, .T. ) ;
#233 = DIRECTION ( 'NONE',  ( -0.0000000000000000000, -0.0000000000000000000, -1.000000000000000000 ) ) ;
#234 = DIRECTION ( 'NONE',  ( 1.000000000000000000, 9.637352644315592778E-16, 0.0000000000000000000 ) ) ;
#235 = ORIENTED_EDGE ( 'NONE', *, *, #628, .T. ) ;
#236 = FILL_AREA_STYLE ('',( #132 ) ) ;
#237 = FILL_AREA_STYLE ('',( #417 ) ) ;
#238 = UNCERTAINTY_MEASURE_WITH_UNIT (LENGTH_MEASURE( 1.000000000000000082E-05 ), #776, 'distance_accuracy_value', 'NONE');
#239 = AXIS2_PLACEMENT_3D ( 'NONE', #268, #365, #109 ) ;
#240 = STYLED_ITEM ( 'NONE', ( #320 ), #643 ) ;
#241 = VECTOR ( 'NONE', #1094, 1000.000000000000000 ) ;
#242 = EDGE_CURVE ( 'NONE', #748, #265, #1175, .T. ) ;
#243 = CARTESIAN_POINT ( 'NONE',  ( 3.399999999999999911, 2.350000000000000089, 0.4000000000000001887 ) ) ;
#244 = ORIENTED_EDGE ( 'NONE', *, *, #315, .T. ) ;
#245 =( LENGTH_UNIT ( ) NAMED_UNIT ( * ) SI_UNIT ( .MILLI., .METRE. ) );
#246 = CARTESIAN_POINT ( 'NONE',  ( 2.799999999999999378, -2.350000000000000533, 0.0000000000000000000 ) ) ;
#247 = LINE ( 'NONE', #711, #368 ) ;
#248 = PRODUCT_DEFINITION ( 'UNKNOWN', '', #979, #1164 ) ;
#249 =( LENGTH_UNIT ( ) NAMED_UNIT ( * ) SI_UNIT ( .MILLI., .METRE. ) );
#250 = FACE_OUTER_BOUND ( 'NONE', #967, .T. ) ;
#251 = CYLINDRICAL_SURFACE ( 'NONE', #935, 0.9000000000000002442 ) ;
#252 = SURFACE_SIDE_STYLE ('',( #72 ) ) ;
#253 = EDGE_LOOP ( 'NONE', ( #416, #1178, #780, #589, #131, #409, #59, #630 ) ) ;
#254 = CARTESIAN_POINT ( 'NONE',  ( -2.540000000000000036, 1.590000000000000080, 0.4000000000000001887 ) ) ;
#255 = DIRECTION ( 'NONE',  ( -0.0000000000000000000, -0.0000000000000000000, -1.000000000000000000 ) ) ;
#256 = AXIS2_PLACEMENT_3D ( 'NONE', #300, #322, #221 ) ;
#257 = VECTOR ( 'NONE', #387, 1000.000000000000000 ) ;
#258 = COLOUR_RGB ( '',0.7490196078431372584, 0.7490196078431372584, 0.7490196078431372584 ) ;
#259 = ORIENTED_EDGE ( 'NONE', *, *, #520, .T. ) ;
#260 = VECTOR ( 'NONE', #679, 1000.000000000000000 ) ;
#261 = FACE_OUTER_BOUND ( 'NONE', #801, .T. ) ;
#262 = DIRECTION ( 'NONE',  ( 0.0000000000000000000, 0.0000000000000000000, 1.000000000000000000 ) ) ;
#263 = ADVANCED_FACE ( 'NONE', ( #377 ), #188, .F. ) ;
#264 = SURFACE_SIDE_STYLE ('',( #1058 ) ) ;
#265 = VERTEX_POINT ( 'NONE', #205 ) ;
#266 = CARTESIAN_POINT ( 'NONE',  ( 3.399999999999999911, -2.350000000000000533, 7.299999999999999822 ) ) ;
#267 = SURFACE_STYLE_USAGE ( .BOTH. , #1167 ) ;
#268 = CARTESIAN_POINT ( 'NONE',  ( 2.799999999999999822, 2.350000000000000089, 0.4000000000000000222 ) ) ;
#269 = ORIENTED_EDGE ( 'NONE', *, *, #226, .T. ) ;
#270 =( NAMED_UNIT ( * ) SI_UNIT ( $, .STERADIAN. ) SOLID_ANGLE_UNIT ( ) );
#271 = CARTESIAN_POINT ( 'NONE',  ( 1.541863943578390295, -1.921723627476709995, 7.799999999999999822 ) ) ;
#272 = SURFACE_STYLE_FILL_AREA ( #86 ) ;
#273 = VECTOR ( 'NONE', #904, 1000.000000000000000 ) ;
#274 = CARTESIAN_POINT ( 'NONE',  ( 3.248268353513850471E-15, -0.9499999999999999556, -2.600000000000000533 ) ) ;
#275 = COLOUR_RGB ( '',0.0000000000000000000, 0.0000000000000000000, 1.000000000000000000 ) ;
#276 = MECHANICAL_DESIGN_GEOMETRIC_PRESENTATION_REPRESENTATION (  '', ( #745 ), #428 ) ;
#277 = EDGE_CURVE ( 'NONE', #308, #345, #454, .T. ) ;
#278 = MECHANICAL_DESIGN_GEOMETRIC_PRESENTATION_REPRESENTATION (  '', ( #1106 ), #837 ) ;
#279 = VERTEX_POINT ( 'NONE', #1013 ) ;
#280 = DIRECTION ( 'NONE',  ( -1.000000000000000000, 1.275531967630000069E-16, 0.0000000000000000000 ) ) ;
#281 = SURFACE_STYLE_FILL_AREA ( #544 ) ;
#282 = CARTESIAN_POINT ( 'NONE',  ( 1.541863943578390295, -1.921723627476709995, 7.799999999999999822 ) ) ;
#283 = ORIENTED_EDGE ( 'NONE', *, *, #819, .F. ) ;
#284 =( NAMED_UNIT ( * ) PLANE_ANGLE_UNIT ( ) SI_UNIT ( $, .RADIAN. ) );
#285 = PRODUCT_CONTEXT ( 'NONE', #707, 'mechanical' ) ;
#286 = SURFACE_SIDE_STYLE ('',( #730 ) ) ;
#287 = ORIENTED_EDGE ( 'NONE', *, *, #925, .T. ) ;
#288 = DIRECTION ( 'NONE',  ( -0.0000000000000000000, -0.0000000000000000000, -1.000000000000000000 ) ) ;
#289 =( GEOMETRIC_REPRESENTATION_CONTEXT ( 3 ) GLOBAL_UNCERTAINTY_ASSIGNED_CONTEXT ( ( #186 ) ) GLOBAL_UNIT_ASSIGNED_CONTEXT ( ( #911, #720, #475 ) ) REPRESENTATION_CONTEXT ( 'NONE', 'WORKASPACE' ) );
#290 = SURFACE_STYLE_FILL_AREA ( #898 ) ;
#291 = STYLED_ITEM ( 'NONE', ( #396 ), #305 ) ;
#292 = CARTESIAN_POINT ( 'NONE',  ( 2.799999999999999822, -2.350000000000000089, 0.4000000000000000222 ) ) ;
#293 = VECTOR ( 'NONE', #1041, 1000.000000000000000 ) ;
#294 = EDGE_LOOP ( 'NONE', ( #533, #688, #888, #921 ) ) ;
#295 = CIRCLE ( 'NONE', #978, 0.9000000000000002442 ) ;
#296 = CARTESIAN_POINT ( 'NONE',  ( 3.399999999999999911, -2.350000000000000089, 0.0000000000000000000 ) ) ;
#297 = MECHANICAL_DESIGN_GEOMETRIC_PRESENTATION_REPRESENTATION (  '', ( #861 ), #430 ) ;
#298 = PLANE ( 'NONE',  #1145 ) ;
#299 = ADVANCED_FACE ( 'NONE', ( #1001 ), #737, .F. ) ;
#300 = CARTESIAN_POINT ( 'NONE',  ( 2.299999999999999822, -1.100000000000000089, 8.199999999999999289 ) ) ;
#301 = DIRECTION ( 'NONE',  ( 1.000000000000000000, 0.0000000000000000000, 0.0000000000000000000 ) ) ;
#302 = VERTEX_POINT ( 'NONE', #474 ) ;
#303 = DIRECTION ( 'NONE',  ( -1.000000000000000000, -0.0000000000000000000, 0.0000000000000000000 ) ) ;
#304 = FACE_OUTER_BOUND ( 'NONE', #160, .T. ) ;
#305 = ADVANCED_FACE ( 'NONE', ( #828 ), #359, .T. ) ;
#306 = SURFACE_SIDE_STYLE ('',( #208 ) ) ;
#307 = LINE ( 'NONE', #282, #446 ) ;
#308 = VERTEX_POINT ( 'NONE', #126 ) ;
#309 = DIRECTION ( 'NONE',  ( 0.0000000000000000000, 0.0000000000000000000, 1.000000000000000000 ) ) ;
#310 = LINE ( 'NONE', #1032, #311 ) ;
#311 = VECTOR ( 'NONE', #850, 1000.000000000000000 ) ;
#312 = CARTESIAN_POINT ( 'NONE',  ( 1.541863943578390295, -1.921723627476709995, 7.799999999999999822 ) ) ;
#313 = ORIENTED_EDGE ( 'NONE', *, *, #806, .F. ) ;
#314 =( GEOMETRIC_REPRESENTATION_CONTEXT ( 3 ) GLOBAL_UNCERTAINTY_ASSIGNED_CONTEXT ( ( #823 ) ) GLOBAL_UNIT_ASSIGNED_CONTEXT ( ( #817, #639, #563 ) ) REPRESENTATION_CONTEXT ( 'NONE', 'WORKASPACE' ) );
#315 = EDGE_CURVE ( 'NONE', #433, #989, #32, .T. ) ;
#316 = DIRECTION ( 'NONE',  ( -0.0000000000000000000, -0.0000000000000000000, -1.000000000000000000 ) ) ;
#317 = VECTOR ( 'NONE', #740, 1000.000000000000000 ) ;
#318 = PRESENTATION_LAYER_ASSIGNMENT (  '', '', ( #894 ) ) ;
#319 = ORIENTED_EDGE ( 'NONE', *, *, #908, .T. ) ;
#320 = PRESENTATION_STYLE_ASSIGNMENT (( #1037 ) ) ;
#321 = UNCERTAINTY_MEASURE_WITH_UNIT (LENGTH_MEASURE( 1.000000000000000082E-05 ), #75, 'distance_accuracy_value', 'NONE');
#322 = DIRECTION ( 'NONE',  ( 0.0000000000000000000, 0.0000000000000000000, 1.000000000000000000 ) ) ;
#323 = FILL_AREA_STYLE_COLOUR ( '', #617 ) ;
#324 = ORIENTED_EDGE ( 'NONE', *, *, #167, .F. ) ;
#325 = SURFACE_STYLE_FILL_AREA ( #659 ) ;
#326 = SURFACE_STYLE_USAGE ( .BOTH. , #1133 ) ;
#327 = LINE ( 'NONE', #50, #293 ) ;
#328 = PLANE ( 'NONE',  #178 ) ;
#329 = VECTOR ( 'NONE', #569, 1000.000000000000000 ) ;
#330 =( NAMED_UNIT ( * ) SI_UNIT ( $, .STERADIAN. ) SOLID_ANGLE_UNIT ( ) );
#331 = VECTOR ( 'NONE', #37, 1000.000000000000000 ) ;
#332 = ADVANCED_FACE ( 'NONE', ( #936, #755 ), #752, .T. ) ;
#333 =( LENGTH_UNIT ( ) NAMED_UNIT ( * ) SI_UNIT ( .MILLI., .METRE. ) );
#334 = MECHANICAL_DESIGN_GEOMETRIC_PRESENTATION_REPRESENTATION (  '', ( #894 ), #797 ) ;
#335 = PLANE ( 'NONE',  #813 ) ;
#336 = DIRECTION ( 'NONE',  ( -0.0000000000000000000, -1.000000000000000000, 0.0000000000000000000 ) ) ;
#337 = CARTESIAN_POINT ( 'NONE',  ( 2.799999999999999822, 2.350000000000000089, 0.4000000000000000777 ) ) ;
#338 = LINE ( 'NONE', #1047, #1153 ) ;
#339 = ORIENTED_EDGE ( 'NONE', *, *, #611, .F. ) ;
#340 =( LENGTH_UNIT ( ) NAMED_UNIT ( * ) SI_UNIT ( .MILLI., .METRE. ) );
#341 = EDGE_LOOP ( 'NONE', ( #810, #73, #470, #621 ) ) ;
#342 =( NAMED_UNIT ( * ) PLANE_ANGLE_UNIT ( ) SI_UNIT ( $, .RADIAN. ) );
#343 =( NAMED_UNIT ( * ) SI_UNIT ( $, .STERADIAN. ) SOLID_ANGLE_UNIT ( ) );
#344 = FILL_AREA_STYLE ('',( #973 ) ) ;
#345 = VERTEX_POINT ( 'NONE', #207 ) ;
#346 = DIRECTION ( 'NONE',  ( -0.0000000000000000000, -0.0000000000000000000, -1.000000000000000000 ) ) ;
#347 = EDGE_CURVE ( 'NONE', #672, #354, #574, .T. ) ;
#348 = STYLED_ITEM ( 'NONE', ( #378 ), #53 ) ;
#349 = CYLINDRICAL_SURFACE ( 'NONE', #1156, 0.2499999999999997780 ) ;
#350 = STYLED_ITEM ( 'NONE', ( #902 ), #263 ) ;
#351 = PRESENTATION_LAYER_ASSIGNMENT (  '', '', ( #411 ) ) ;
#352 = DIRECTION ( 'NONE',  ( 1.000000000000000000, 0.0000000000000000000, 0.0000000000000000000 ) ) ;
#353 = STYLED_ITEM ( 'NONE', ( #506 ), #849 ) ;
#354 = VERTEX_POINT ( 'NONE', #947 ) ;
#355 = CIRCLE ( 'NONE', #410, 0.2500000000000000000 ) ;
#356 = DIRECTION ( 'NONE',  ( -1.000000000000000000, 0.0000000000000000000, 0.0000000000000000000 ) ) ;
#357 = ADVANCED_FACE ( 'NONE', ( #304 ), #531, .F. ) ;
#358 =( NAMED_UNIT ( * ) PLANE_ANGLE_UNIT ( ) SI_UNIT ( $, .RADIAN. ) );
#359 = CYLINDRICAL_SURFACE ( 'NONE', #256, 0.9000000000000002442 ) ;
#360 =( LENGTH_UNIT ( ) NAMED_UNIT ( * ) SI_UNIT ( .MILLI., .METRE. ) );
#361 = ORIENTED_EDGE ( 'NONE', *, *, #819, .T. ) ;
#362 =( LENGTH_UNIT ( ) NAMED_UNIT ( * ) SI_UNIT ( .MILLI., .METRE. ) );
#363 = DIRECTION ( 'NONE',  ( 0.0000000000000000000, 0.0000000000000000000, 1.000000000000000000 ) ) ;
#364 = EDGE_CURVE ( 'NONE', #977, #884, #1069, .T. ) ;
#365 = DIRECTION ( 'NONE',  ( 1.000000000000000000, -1.845450506358299902E-16, 0.0000000000000000000 ) ) ;
#366 = DIRECTION ( 'NONE',  ( 1.000000000000000000, 0.0000000000000000000, -0.0000000000000000000 ) ) ;
#367 = ORIENTED_EDGE ( 'NONE', *, *, #984, .T. ) ;
#368 = VECTOR ( 'NONE', #346, 1000.000000000000000 ) ;
#369 = AXIS2_PLACEMENT_3D ( 'NONE', #827, #363, #15 ) ;
#370 = ADVANCED_FACE ( 'NONE', ( #153 ), #349, .T. ) ;
#371 = SURFACE_SIDE_STYLE ('',( #290 ) ) ;
#372 = SURFACE_STYLE_USAGE ( .BOTH. , #838 ) ;
#373 = AXIS2_PLACEMENT_3D ( 'NONE', #453, #713, #187 ) ;
#374 = ORIENTED_EDGE ( 'NONE', *, *, #611, .T. ) ;
#375 = AXIS2_PLACEMENT_3D ( 'NONE', #254, #77, #1171 ) ;
#376 = FILL_AREA_STYLE_COLOUR ( '', #518 ) ;
#377 = FACE_OUTER_BOUND ( 'NONE', #1004, .T. ) ;
#378 = PRESENTATION_STYLE_ASSIGNMENT (( #105 ) ) ;
#379 =( NAMED_UNIT ( * ) SI_UNIT ( $, .STERADIAN. ) SOLID_ANGLE_UNIT ( ) );
#380 = ORIENTED_EDGE ( 'NONE', *, *, #1061, .F. ) ;
#381 = DIRECTION ( 'NONE',  ( -0.7986355100472916080, -0.6018150231520499327, 0.0000000000000000000 ) ) ;
#382 = PRESENTATION_STYLE_ASSIGNMENT (( #267 ) ) ;
#383 = DIRECTION ( 'NONE',  ( -1.000000000000000000, 0.0000000000000000000, -0.0000000000000000000 ) ) ;
#384 = VERTEX_POINT ( 'NONE', #866 ) ;
#385 = EDGE_CURVE ( 'NONE', #36, #985, #577, .T. ) ;
#386 = CARTESIAN_POINT ( 'NONE',  ( -3.399999999999999911, -2.350000000000000089, 7.299999999999999822 ) ) ;
#387 = DIRECTION ( 'NONE',  ( -0.0000000000000000000, 1.000000000000000000, 0.0000000000000000000 ) ) ;
#388 = DIRECTION ( 'NONE',  ( 0.0000000000000000000, 0.0000000000000000000, 1.000000000000000000 ) ) ;
#389 = PRESENTATION_STYLE_ASSIGNMENT (( #195 ) ) ;
#390 = DIRECTION ( 'NONE',  ( 0.7986355100472930513, 0.6018150231520480453, 0.0000000000000000000 ) ) ;
#391 = VECTOR ( 'NONE', #233, 1000.000000000000000 ) ;
#392 = ORIENTED_EDGE ( 'NONE', *, *, #580, .F. ) ;
#393 =( GEOMETRIC_REPRESENTATION_CONTEXT ( 3 ) GLOBAL_UNCERTAINTY_ASSIGNED_CONTEXT ( ( #567 ) ) GLOBAL_UNIT_ASSIGNED_CONTEXT ( ( #536, #358, #1000 ) ) REPRESENTATION_CONTEXT ( 'NONE', 'WORKASPACE' ) );
#394 = DIRECTION ( 'NONE',  ( -1.000000000000000000, 0.0000000000000000000, -0.0000000000000000000 ) ) ;
#395 =( NAMED_UNIT ( * ) PLANE_ANGLE_UNIT ( ) SI_UNIT ( $, .RADIAN. ) );
#396 = PRESENTATION_STYLE_ASSIGNMENT (( #16 ) ) ;
#397 = SURFACE_SIDE_STYLE ('',( #809 ) ) ;
#398 = ORIENTED_EDGE ( 'NONE', *, *, #930, .F. ) ;
#399 = CARTESIAN_POINT ( 'NONE',  ( -2.790000000000000036, 1.590000000000000080, -2.600000000000000533 ) ) ;
#400 = ADVANCED_FACE ( 'NONE', ( #250 ), #983, .F. ) ;
#401 = DIRECTION ( 'NONE',  ( 0.0000000000000000000, 0.0000000000000000000, 1.000000000000000000 ) ) ;
#402 = DIRECTION ( 'NONE',  ( -0.0000000000000000000, -0.0000000000000000000, -1.000000000000000000 ) ) ;
#403 = ORIENTED_EDGE ( 'NONE', *, *, #764, .F. ) ;
#404 = CARTESIAN_POINT ( 'NONE',  ( 1.399999999999999689, -1.099999999999999867, 8.199999999999999289 ) ) ;
#405 = UNCERTAINTY_MEASURE_WITH_UNIT (LENGTH_MEASURE( 1.000000000000000082E-05 ), #1092, 'distance_accuracy_value', 'NONE');
#406 = FILL_AREA_STYLE ('',( #38 ) ) ;
#407 = EDGE_CURVE ( 'NONE', #756, #94, #875, .T. ) ;
#408 = SURFACE_STYLE_FILL_AREA ( #491 ) ;
#409 = ORIENTED_EDGE ( 'NONE', *, *, #209, .T. ) ;
#410 = AXIS2_PLACEMENT_3D ( 'NONE', #58, #1049, #1137 ) ;
#411 = STYLED_ITEM ( 'NONE', ( #677 ), #357 ) ;
#412 = LINE ( 'NONE', #681, #445 ) ;
#413 = CIRCLE ( 'NONE', #1068, 0.2499999999999997780 ) ;
#414 =( GEOMETRIC_REPRESENTATION_CONTEXT ( 3 ) GLOBAL_UNCERTAINTY_ASSIGNED_CONTEXT ( ( #676 ) ) GLOBAL_UNIT_ASSIGNED_CONTEXT ( ( #415, #140, #146 ) ) REPRESENTATION_CONTEXT ( 'NONE', 'WORKASPACE' ) );
#415 =( LENGTH_UNIT ( ) NAMED_UNIT ( * ) SI_UNIT ( .MILLI., .METRE. ) );
#416 = ORIENTED_EDGE ( 'NONE', *, *, #149, .T. ) ;
#417 = FILL_AREA_STYLE_COLOUR ( '', #119 ) ;
#418 = UNCERTAINTY_MEASURE_WITH_UNIT (LENGTH_MEASURE( 1.000000000000000082E-05 ), #245, 'distance_accuracy_value', 'NONE');
#419 = PRESENTATION_STYLE_ASSIGNMENT (( #228 ) ) ;
#420 = VERTEX_POINT ( 'NONE', #999 ) ;
#421 = EDGE_CURVE ( 'NONE', #672, #872, #102, .T. ) ;
#422 = CARTESIAN_POINT ( 'NONE',  ( 3.058136056421620008, -0.2782763725232880181, 7.799999999999999822 ) ) ;
#423 = LINE ( 'NONE', #1130, #500 ) ;
#424 = VERTEX_POINT ( 'NONE', #561 ) ;
#425 = DIRECTION ( 'NONE',  ( -1.000000000000000000, 0.0000000000000000000, 0.0000000000000000000 ) ) ;
#426 =( GEOMETRIC_REPRESENTATION_CONTEXT ( 3 ) GLOBAL_UNCERTAINTY_ASSIGNED_CONTEXT ( ( #321 ) ) GLOBAL_UNIT_ASSIGNED_CONTEXT ( ( #75, #1071, #1161 ) ) REPRESENTATION_CONTEXT ( 'NONE', 'WORKASPACE' ) );
#427 = FILL_AREA_STYLE ('',( #165 ) ) ;
#428 =( GEOMETRIC_REPRESENTATION_CONTEXT ( 3 ) GLOBAL_UNCERTAINTY_ASSIGNED_CONTEXT ( ( #1017 ) ) GLOBAL_UNIT_ASSIGNED_CONTEXT ( ( #95, #284, #812 ) ) REPRESENTATION_CONTEXT ( 'NONE', 'WORKASPACE' ) );
#429 = AXIS2_PLACEMENT_3D ( 'NONE', #895, #204, #727 ) ;
#430 =( GEOMETRIC_REPRESENTATION_CONTEXT ( 3 ) GLOBAL_UNCERTAINTY_ASSIGNED_CONTEXT ( ( #907 ) ) GLOBAL_UNIT_ASSIGNED_CONTEXT ( ( #249, #515, #664 ) ) REPRESENTATION_CONTEXT ( 'NONE', 'WORKASPACE' ) );
#431 = ORIENTED_EDGE ( 'NONE', *, *, #1135, .T. ) ;
#432 =( NAMED_UNIT ( * ) SI_UNIT ( $, .STERADIAN. ) SOLID_ANGLE_UNIT ( ) );
#433 = VERTEX_POINT ( 'NONE', #191 ) ;
#434 = PRESENTATION_STYLE_ASSIGNMENT (( #176 ) ) ;
#435 = FILL_AREA_STYLE_COLOUR ( '', #892 ) ;
#436 = DIRECTION ( 'NONE',  ( -1.000000000000000000, 1.275531967630000069E-16, 0.0000000000000000000 ) ) ;
#437 = EDGE_CURVE ( 'NONE', #977, #206, #1005, .T. ) ;
#438 = ORIENTED_EDGE ( 'NONE', *, *, #925, .F. ) ;
#439 =( LENGTH_UNIT ( ) NAMED_UNIT ( * ) SI_UNIT ( .MILLI., .METRE. ) );
#440 = CARTESIAN_POINT ( 'NONE',  ( 3.248268353513850471E-15, -0.9499999999999999556, 0.4000000000000001887 ) ) ;
#441 = ORIENTED_EDGE ( 'NONE', *, *, #385, .F. ) ;
#442 = ADVANCED_FACE ( 'NONE', ( #201 ), #1097, .F. ) ;
#443 = VECTOR ( 'NONE', #436, 1000.000000000000000 ) ;
#444 = COLOUR_RGB ( '',0.8666666666666666963, 0.7019607843137254388, 0.3450980392156862697 ) ;
#445 = VECTOR ( 'NONE', #224, 1000.000000000000000 ) ;
#446 = VECTOR ( 'NONE', #390, 1000.000000000000000 ) ;
#447 = ORIENTED_EDGE ( 'NONE', *, *, #1046, .T. ) ;
#448 = SURFACE_STYLE_USAGE ( .BOTH. , #89 ) ;
#449 = UNCERTAINTY_MEASURE_WITH_UNIT (LENGTH_MEASURE( 1.000000000000000082E-05 ), #887, 'distance_accuracy_value', 'NONE');
#450 = DIRECTION ( 'NONE',  ( 0.0000000000000000000, 0.0000000000000000000, 1.000000000000000000 ) ) ;
#451 = CARTESIAN_POINT ( 'NONE',  ( -2.799999999999999822, -2.350000000000000089, 0.4000000000000000222 ) ) ;
#452 = EDGE_CURVE ( 'NONE', #1020, #420, #1180, .T. ) ;
#453 = CARTESIAN_POINT ( 'NONE',  ( 2.540000000000000036, 1.590000000000000080, -2.600000000000000533 ) ) ;
#454 = LINE ( 'NONE', #735, #174 ) ;
#455 = DIRECTION ( 'NONE',  ( 1.845450506358299902E-16, 1.000000000000000000, 0.0000000000000000000 ) ) ;
#456 = EDGE_LOOP ( 'NONE', ( #739, #1039, #1059, #549, #115, #513, #636, #1172 ) ) ;
#457 = PRESENTATION_LAYER_ASSIGNMENT (  '', '', ( #953 ) ) ;
#458 = DIRECTION ( 'NONE',  ( 0.0000000000000000000, 0.0000000000000000000, 1.000000000000000000 ) ) ;
#459 = COLOUR_RGB ( '',0.8666666666666666963, 0.7019607843137254388, 0.3450980392156862697 ) ;
#460 = SURFACE_SIDE_STYLE ('',( #719 ) ) ;
#461 = VECTOR ( 'NONE', #144, 1000.000000000000000 ) ;
#462 = SURFACE_STYLE_USAGE ( .BOTH. , #286 ) ;
#463 = CIRCLE ( 'NONE', #859, 0.9000000000000002442 ) ;
#464 = MECHANICAL_DESIGN_GEOMETRIC_PRESENTATION_REPRESENTATION (  '', ( #353 ), #692 ) ;
#465 = VERTEX_POINT ( 'NONE', #1163 ) ;
#466 = PRESENTATION_LAYER_ASSIGNMENT (  '', '', ( #161 ) ) ;
#467 = CARTESIAN_POINT ( 'NONE',  ( 2.880436811286759990, -0.4121823583948630021, 8.199999999999999289 ) ) ;
#468 = DIRECTION ( 'NONE',  ( 0.0000000000000000000, 0.0000000000000000000, 1.000000000000000000 ) ) ;
#469 = EDGE_CURVE ( 'NONE', #424, #1051, #217, .T. ) ;
#470 = ORIENTED_EDGE ( 'NONE', *, *, #1036, .T. ) ;
#471 = FILL_AREA_STYLE_COLOUR ( '', #444 ) ;
#472 = UNCERTAINTY_MEASURE_WITH_UNIT (LENGTH_MEASURE( 1.000000000000000082E-05 ), #744, 'distance_accuracy_value', 'NONE');
#473 = CYLINDRICAL_SURFACE ( 'NONE', #519, 0.2499999999999997780 ) ;
#474 = CARTESIAN_POINT ( 'NONE',  ( 3.399999999999999911, 2.350000000000000089, 0.0000000000000000000 ) ) ;
#475 =( NAMED_UNIT ( * ) SI_UNIT ( $, .STERADIAN. ) SOLID_ANGLE_UNIT ( ) );
#476 = CARTESIAN_POINT ( 'NONE',  ( 2.299999999999999822, -1.100000000000000089, 8.199999999999999289 ) ) ;
#477 = ORIENTED_EDGE ( 'NONE', *, *, #1046, .F. ) ;
#478 = DIRECTION ( 'NONE',  ( 1.000000000000000000, 0.0000000000000000000, 0.0000000000000000000 ) ) ;
#479 = DIRECTION ( 'NONE',  ( -0.0000000000000000000, -0.0000000000000000000, -1.000000000000000000 ) ) ;
#480 = SURFACE_STYLE_FILL_AREA ( #660 ) ;
#481 = COLOUR_RGB ( '',0.8666666666666666963, 0.7019607843137254388, 0.3450980392156862697 ) ;
#482 = FACE_OUTER_BOUND ( 'NONE', #559, .T. ) ;
#483 = COLOUR_RGB ( '',0.7490196078431372584, 0.7490196078431372584, 0.7490196078431372584 ) ;
#484 = VERTEX_POINT ( 'NONE', #386 ) ;
#485 = AXIS2_PLACEMENT_3D ( 'NONE', #749, #1111, #478 ) ;
#486 = CARTESIAN_POINT ( 'NONE',  ( 2.299999999999999822, -1.100000000000000089, 7.799999999999999822 ) ) ;
#487 = VECTOR ( 'NONE', #738, 1000.000000000000000 ) ;
#488 = UNCERTAINTY_MEASURE_WITH_UNIT (LENGTH_MEASURE( 1.000000000000000082E-05 ), #542, 'distance_accuracy_value', 'NONE');
#489 = ADVANCED_FACE ( 'NONE', ( #1074 ), #171, .T. ) ;
#490 = CARTESIAN_POINT ( 'NONE',  ( 2.799999999999999822, 2.350000000000000089, 0.0000000000000000000 ) ) ;
#491 = FILL_AREA_STYLE ('',( #323 ) ) ;
#492 = EDGE_LOOP ( 'NONE', ( #1072, #571 ) ) ;
#493 = LINE ( 'NONE', #766, #317 ) ;
#494 = EDGE_CURVE ( 'NONE', #279, #1095, #914, .T. ) ;
#495 = DIRECTION ( 'NONE',  ( 0.0000000000000000000, 0.0000000000000000000, 1.000000000000000000 ) ) ;
#496 = ORIENTED_EDGE ( 'NONE', *, *, #1026, .F. ) ;
#497 = SURFACE_SIDE_STYLE ('',( #480 ) ) ;
#498 = ORIENTED_EDGE ( 'NONE', *, *, #595, .F. ) ;
#499 = AXIS2_PLACEMENT_3D ( 'NONE', #274, #996, #633 ) ;
#500 = VECTOR ( 'NONE', #128, 1000.000000000000000 ) ;
#501 = SURFACE_STYLE_USAGE ( .BOTH. , #960 ) ;
#502 = COLOUR_RGB ( '',0.0000000000000000000, 0.0000000000000000000, 1.000000000000000000 ) ;
#503 =( LENGTH_UNIT ( ) NAMED_UNIT ( * ) SI_UNIT ( .MILLI., .METRE. ) );
#504 = DIRECTION ( 'NONE',  ( 0.0000000000000000000, 0.0000000000000000000, 1.000000000000000000 ) ) ;
#505 = EDGE_CURVE ( 'NONE', #190, #584, #413, .T. ) ;
#506 = PRESENTATION_STYLE_ASSIGNMENT (( #501 ) ) ;
#507 = DIRECTION ( 'NONE',  ( 1.000000000000000000, 0.0000000000000000000, -0.0000000000000000000 ) ) ;
#508 = DIRECTION ( 'NONE',  ( -0.6018150231520480453, 0.7986355100472930513, 0.0000000000000000000 ) ) ;
#509 = CARTESIAN_POINT ( 'NONE',  ( 3.399999999999999911, 2.350000000000000089, 7.299999999999999822 ) ) ;
#510 = ORIENTED_EDGE ( 'NONE', *, *, #226, .F. ) ;
#511 = EDGE_CURVE ( 'NONE', #599, #566, #573, .T. ) ;
#512 = FILL_AREA_STYLE ('',( #435 ) ) ;
#513 = ORIENTED_EDGE ( 'NONE', *, *, #1148, .T. ) ;
#514 = COLOUR_RGB ( '',0.7490196078431372584, 0.7490196078431372584, 0.7490196078431372584 ) ;
#515 =( NAMED_UNIT ( * ) PLANE_ANGLE_UNIT ( ) SI_UNIT ( $, .RADIAN. ) );
#516 = MECHANICAL_DESIGN_GEOMETRIC_PRESENTATION_REPRESENTATION (  '', ( #350 ), #314 ) ;
#517 = MECHANICAL_DESIGN_GEOMETRIC_PRESENTATION_REPRESENTATION (  '', ( #863 ), #414 ) ;
#518 = COLOUR_RGB ( '',0.7490196078431372584, 0.7490196078431372584, 0.7490196078431372584 ) ;
#519 = AXIS2_PLACEMENT_3D ( 'NONE', #775, #479, #60 ) ;
#520 = EDGE_CURVE ( 'NONE', #345, #433, #1143, .T. ) ;
#521 = PRESENTATION_STYLE_ASSIGNMENT (( #65 ) ) ;
#522 = ORIENTED_EDGE ( 'NONE', *, *, #242, .T. ) ;
#523 = DIRECTION ( 'NONE',  ( -0.0000000000000000000, 0.0000000000000000000, 1.000000000000000000 ) ) ;
#524 = ORIENTED_EDGE ( 'NONE', *, *, #1096, .F. ) ;
#525 =( NAMED_UNIT ( * ) PLANE_ANGLE_UNIT ( ) SI_UNIT ( $, .RADIAN. ) );
#526 = EDGE_CURVE ( 'NONE', #748, #424, #663, .T. ) ;
#527 = CARTESIAN_POINT ( 'NONE',  ( 2.299999999999999822, -1.100000000000000089, 8.199999999999999289 ) ) ;
#528 = CARTESIAN_POINT ( 'NONE',  ( 3.121162820547588534, -0.7316365624137771695, 7.799999999999999822 ) ) ;
#529 = ORIENTED_EDGE ( 'NONE', *, *, #407, .T. ) ;
#530 = FILL_AREA_STYLE_COLOUR ( '', #729 ) ;
#531 = PLANE ( 'NONE',  #1029 ) ;
#532 = LINE ( 'NONE', #608, #443 ) ;
#533 = ORIENTED_EDGE ( 'NONE', *, *, #930, .T. ) ;
#534 = CARTESIAN_POINT ( 'NONE',  ( -3.399999999999999911, 2.350000000000000089, 0.0000000000000000000 ) ) ;
#535 = FILL_AREA_STYLE ('',( #376 ) ) ;
#536 =( LENGTH_UNIT ( ) NAMED_UNIT ( * ) SI_UNIT ( .MILLI., .METRE. ) );
#537 =( NAMED_UNIT ( * ) SI_UNIT ( $, .STERADIAN. ) SOLID_ANGLE_UNIT ( ) );
#538 = AXIS2_PLACEMENT_3D ( 'NONE', #96, #458, #104 ) ;
#539 = PRESENTATION_LAYER_ASSIGNMENT (  '', '', ( #558 ) ) ;
#540 = FILL_AREA_STYLE_COLOUR ( '', #502 ) ;
#541 = EDGE_CURVE ( 'NONE', #157, #420, #946, .T. ) ;
#542 =( LENGTH_UNIT ( ) NAMED_UNIT ( * ) SI_UNIT ( .MILLI., .METRE. ) );
#543 = FILL_AREA_STYLE ('',( #803 ) ) ;
#544 = FILL_AREA_STYLE ('',( #1108 ) ) ;
#545 = SURFACE_STYLE_FILL_AREA ( #657 ) ;
#546 = ORIENTED_EDGE ( 'NONE', *, *, #694, .T. ) ;
#547 = SURFACE_SIDE_STYLE ('',( #626 ) ) ;
#548 = FILL_AREA_STYLE_COLOUR ( '', #275 ) ;
#549 = ORIENTED_EDGE ( 'NONE', *, *, #347, .T. ) ;
#550 = SURFACE_STYLE_USAGE ( .BOTH. , #547 ) ;
#551 = UNCERTAINTY_MEASURE_WITH_UNIT (LENGTH_MEASURE( 1.000000000000000082E-05 ), #1080, 'distance_accuracy_value', 'NONE');
#552 = EDGE_CURVE ( 'NONE', #1155, #354, #1085, .T. ) ;
#553 = SURFACE_STYLE_FILL_AREA ( #910 ) ;
#554 = VECTOR ( 'NONE', #381, 1000.000000000000000 ) ;
#555 = SURFACE_SIDE_STYLE ('',( #281 ) ) ;
#556 =( GEOMETRIC_REPRESENTATION_CONTEXT ( 3 ) GLOBAL_UNCERTAINTY_ASSIGNED_CONTEXT ( ( #582 ) ) GLOBAL_UNIT_ASSIGNED_CONTEXT ( ( #833, #591, #862 ) ) REPRESENTATION_CONTEXT ( 'NONE', 'WORKASPACE' ) );
#557 = CARTESIAN_POINT ( 'NONE',  ( 3.058136056421620008, -0.2782763725232880181, 7.799999999999999822 ) ) ;
#558 = STYLED_ITEM ( 'NONE', ( #665 ), #900 ) ;
#559 = EDGE_LOOP ( 'NONE', ( #821, #169, #106, #793 ) ) ;
#560 = COLOUR_RGB ( '',0.0000000000000000000, 0.0000000000000000000, 1.000000000000000000 ) ;
#561 = CARTESIAN_POINT ( 'NONE',  ( 2.790000000000000036, 1.590000000000000080, -2.600000000000000533 ) ) ;
#562 = DIRECTION ( 'NONE',  ( 1.000000000000000000, 3.614007241618346799E-15, 0.0000000000000000000 ) ) ;
#563 =( NAMED_UNIT ( * ) SI_UNIT ( $, .STERADIAN. ) SOLID_ANGLE_UNIT ( ) );
#564 = PLANE ( 'NONE',  #1151 ) ;
#565 = LINE ( 'NONE', #926, #159 ) ;
#566 = VERTEX_POINT ( 'NONE', #124 ) ;
#567 = UNCERTAINTY_MEASURE_WITH_UNIT (LENGTH_MEASURE( 1.000000000000000082E-05 ), #536, 'distance_accuracy_value', 'NONE');
#568 = SURFACE_STYLE_FILL_AREA ( #87 ) ;
#569 = DIRECTION ( 'NONE',  ( -0.0000000000000000000, -0.0000000000000000000, -1.000000000000000000 ) ) ;
#570 = CARTESIAN_POINT ( 'NONE',  ( -3.399999999999999911, 2.349999999999999201, 7.299999999999999822 ) ) ;
#571 = ORIENTED_EDGE ( 'NONE', *, *, #494, .F. ) ;
#572 = EDGE_CURVE ( 'NONE', #722, #484, #493, .T. ) ;
#573 = LINE ( 'NONE', #21, #137 ) ;
#574 = LINE ( 'NONE', #1113, #391 ) ;
#575 = AXIS2_PLACEMENT_3D ( 'NONE', #193, #652, #5 ) ;
#576 = CARTESIAN_POINT ( 'NONE',  ( -2.790000000000000036, 1.590000000000000080, -2.600000000000000533 ) ) ;
#577 = CIRCLE ( 'NONE', #836, 0.2500000000000000000 ) ;
#578 = ORIENTED_EDGE ( 'NONE', *, *, #315, .F. ) ;
#579 = VECTOR ( 'NONE', #468, 1000.000000000000000 ) ;
#580 = EDGE_CURVE ( 'NONE', #265, #748, #916, .T. ) ;
#581 = DIRECTION ( 'NONE',  ( -0.0000000000000000000, -0.0000000000000000000, -1.000000000000000000 ) ) ;
#582 = UNCERTAINTY_MEASURE_WITH_UNIT (LENGTH_MEASURE( 1.000000000000000082E-05 ), #833, 'distance_accuracy_value', 'NONE');
#583 =( LENGTH_UNIT ( ) NAMED_UNIT ( * ) SI_UNIT ( .MILLI., .METRE. ) );
#584 = VERTEX_POINT ( 'NONE', #399 ) ;
#585 = SURFACE_SIDE_STYLE ('',( #133 ) ) ;
#586 =( NAMED_UNIT ( * ) SI_UNIT ( $, .STERADIAN. ) SOLID_ANGLE_UNIT ( ) );
#587 = DIRECTION ( 'NONE',  ( -0.0000000000000000000, -0.0000000000000000000, -1.000000000000000000 ) ) ;
#588 = DIRECTION ( 'NONE',  ( -1.000000000000000000, 0.0000000000000000000, 0.0000000000000000000 ) ) ;
#589 = ORIENTED_EDGE ( 'NONE', *, *, #1036, .F. ) ;
#590 = FACE_OUTER_BOUND ( 'NONE', #253, .T. ) ;
#591 =( NAMED_UNIT ( * ) PLANE_ANGLE_UNIT ( ) SI_UNIT ( $, .RADIAN. ) );
#592 = UNCERTAINTY_MEASURE_WITH_UNIT (LENGTH_MEASURE( 1.000000000000000082E-05 ), #11, 'distance_accuracy_value', 'NONE');
#593 =( NAMED_UNIT ( * ) PLANE_ANGLE_UNIT ( ) SI_UNIT ( $, .RADIAN. ) );
#594 = ADVANCED_BREP_SHAPE_REPRESENTATION ( '6E25F28D-DE9E-4487-9511-A571BA408F61', ( #33, #675 ), #976 ) ;
#595 = EDGE_CURVE ( 'NONE', #308, #680, #463, .T. ) ;
#596 = CARTESIAN_POINT ( 'NONE',  ( -2.799999999999999822, 2.350000000000000089, 0.4000000000000000222 ) ) ;
#597 =( GEOMETRIC_REPRESENTATION_CONTEXT ( 3 ) GLOBAL_UNCERTAINTY_ASSIGNED_CONTEXT ( ( #923 ) ) GLOBAL_UNIT_ASSIGNED_CONTEXT ( ( #583, #954, #772 ) ) REPRESENTATION_CONTEXT ( 'NONE', 'WORKASPACE' ) );
#598 = FACE_OUTER_BOUND ( 'NONE', #294, .T. ) ;
#599 = VERTEX_POINT ( 'NONE', #852 ) ;
#600 = LINE ( 'NONE', #1112, #257 ) ;
#601 = DIRECTION ( 'NONE',  ( 0.0000000000000000000, 0.0000000000000000000, 1.000000000000000000 ) ) ;
#602 = VECTOR ( 'NONE', #581, 1000.000000000000000 ) ;
#603 = AXIS2_PLACEMENT_3D ( 'NONE', #476, #12, #383 ) ;
#604 =( NAMED_UNIT ( * ) SI_UNIT ( $, .STERADIAN. ) SOLID_ANGLE_UNIT ( ) );
#605 = CARTESIAN_POINT ( 'NONE',  ( 3.248268353513850471E-15, -0.9499999999999999556, -2.600000000000000533 ) ) ;
#606 = SURFACE_STYLE_FILL_AREA ( #236 ) ;
#607 =( NAMED_UNIT ( * ) SI_UNIT ( $, .STERADIAN. ) SOLID_ANGLE_UNIT ( ) );
#608 = CARTESIAN_POINT ( 'NONE',  ( -3.399999999999999911, -2.350000000000000089, 0.0000000000000000000 ) ) ;
#609 =( NAMED_UNIT ( * ) PLANE_ANGLE_UNIT ( ) SI_UNIT ( $, .RADIAN. ) );
#610 = ORIENTED_EDGE ( 'NONE', *, *, #347, .F. ) ;
#611 = EDGE_CURVE ( 'NONE', #302, #977, #231, .T. ) ;
#612 = SURFACE_SIDE_STYLE ('',( #691 ) ) ;
#613 = SURFACE_SIDE_STYLE ('',( #620 ) ) ;
#614 = VERTEX_POINT ( 'NONE', #404 ) ;
#615 = CARTESIAN_POINT ( 'NONE',  ( 1.478837179452418882, -1.468363437586222009, 8.199999999999999289 ) ) ;
#616 = MECHANICAL_DESIGN_GEOMETRIC_PRESENTATION_REPRESENTATION (  '', ( #291 ), #759 ) ;
#617 = COLOUR_RGB ( '',0.8666666666666666963, 0.7019607843137254388, 0.3450980392156862697 ) ;
#618 = CARTESIAN_POINT ( 'NONE',  ( 3.399999999999999911, -2.350000000000000089, 7.299999999999999822 ) ) ;
#619 = AXIS2_PLACEMENT_3D ( 'NONE', #56, #781, #425 ) ;
#620 = SURFACE_STYLE_FILL_AREA ( #1152 ) ;
#621 = ORIENTED_EDGE ( 'NONE', *, *, #572, .T. ) ;
#622 = PLANE ( 'NONE',  #889 ) ;
#623 = DIRECTION ( 'NONE',  ( 0.0000000000000000000, 1.000000000000000000, 0.0000000000000000000 ) ) ;
#624 = ORIENTED_EDGE ( 'NONE', *, *, #1114, .T. ) ;
#625 = FACE_OUTER_BOUND ( 'NONE', #753, .T. ) ;
#626 = SURFACE_STYLE_FILL_AREA ( #85 ) ;
#627 = SURFACE_STYLE_USAGE ( .BOTH. , #460 ) ;
#628 = EDGE_CURVE ( 'NONE', #985, #1095, #412, .T. ) ;
#629 =( NAMED_UNIT ( * ) SI_UNIT ( $, .STERADIAN. ) SOLID_ANGLE_UNIT ( ) );
#630 = ORIENTED_EDGE ( 'NONE', *, *, #1114, .F. ) ;
#631 = DIRECTION ( 'NONE',  ( 0.0000000000000000000, 0.0000000000000000000, 1.000000000000000000 ) ) ;
#632 =( NAMED_UNIT ( * ) PLANE_ANGLE_UNIT ( ) SI_UNIT ( $, .RADIAN. ) );
#633 = DIRECTION ( 'NONE',  ( -1.000000000000000000, 0.0000000000000000000, 0.0000000000000000000 ) ) ;
#634 = PRESENTATION_LAYER_ASSIGNMENT (  '', '', ( #240 ) ) ;
#635 = MECHANICAL_DESIGN_GEOMETRIC_PRESENTATION_REPRESENTATION (  '', ( #558 ), #1033 ) ;
#636 = ORIENTED_EDGE ( 'NONE', *, *, #764, .T. ) ;
#637 = DIRECTION ( 'NONE',  ( 0.0000000000000000000, 0.0000000000000000000, 1.000000000000000000 ) ) ;
#638 = FACE_OUTER_BOUND ( 'NONE', #939, .T. ) ;
#639 =( NAMED_UNIT ( * ) PLANE_ANGLE_UNIT ( ) SI_UNIT ( $, .RADIAN. ) );
#640 = FILL_AREA_STYLE_COLOUR ( '', #1079 ) ;
#641 = CARTESIAN_POINT ( 'NONE',  ( 3.121162820547586758, -0.7316365624137799450, 8.199999999999999289 ) ) ;
#642 = EDGE_LOOP ( 'NONE', ( #477, #216, #229, #438 ) ) ;
#643 = ADVANCED_FACE ( 'NONE', ( #952 ), #1117, .F. ) ;
#644 = CARTESIAN_POINT ( 'NONE',  ( -2.540000000000000036, 1.590000000000000080, 0.4000000000000001887 ) ) ;
#645 =( LENGTH_UNIT ( ) NAMED_UNIT ( * ) SI_UNIT ( .MILLI., .METRE. ) );
#646 = FILL_AREA_STYLE_COLOUR ( '', #258 ) ;
#647 = ORIENTED_EDGE ( 'NONE', *, *, #941, .T. ) ;
#648 = DIRECTION ( 'NONE',  ( 0.6018150231520480453, -0.7986355100472930513, 0.0000000000000000000 ) ) ;
#649 = PRODUCT_RELATED_PRODUCT_CATEGORY ( 'part', '', ( #64 ) ) ;
#650 = SURFACE_STYLE_FILL_AREA ( #734 ) ;
#651 = STYLED_ITEM ( 'NONE', ( #1173 ), #299 ) ;
#652 = DIRECTION ( 'NONE',  ( 0.0000000000000000000, 0.0000000000000000000, 1.000000000000000000 ) ) ;
#653 = AXIS2_PLACEMENT_3D ( 'NONE', #867, #402, #588 ) ;
#654 = STYLED_ITEM ( 'NONE', ( #870 ), #400 ) ;
#655 = SHAPE_DEFINITION_REPRESENTATION ( #1166, #594 ) ;
#656 =( NAMED_UNIT ( * ) PLANE_ANGLE_UNIT ( ) SI_UNIT ( $, .RADIAN. ) );
#657 = FILL_AREA_STYLE ('',( #646 ) ) ;
#658 = ORIENTED_EDGE ( 'NONE', *, *, #1078, .T. ) ;
#659 = FILL_AREA_STYLE ('',( #24 ) ) ;
#660 = FILL_AREA_STYLE ('',( #758 ) ) ;
#661 = DIRECTION ( 'NONE',  ( -0.0000000000000000000, -1.000000000000000000, -0.0000000000000000000 ) ) ;
#662 = ORIENTED_EDGE ( 'NONE', *, *, #628, .F. ) ;
#663 = LINE ( 'NONE', #212, #602 ) ;
#664 =( NAMED_UNIT ( * ) SI_UNIT ( $, .STERADIAN. ) SOLID_ANGLE_UNIT ( ) );
#665 = PRESENTATION_STYLE_ASSIGNMENT (( #18 ) ) ;
#666 = ORIENTED_EDGE ( 'NONE', *, *, #452, .F. ) ;
#667 = CARTESIAN_POINT ( 'NONE',  ( 3.248268353513850471E-15, -0.9499999999999999556, -2.600000000000000533 ) ) ;
#668 = PRESENTATION_LAYER_ASSIGNMENT (  '', '', ( #651 ) ) ;
#669 = PRESENTATION_LAYER_ASSIGNMENT (  '', '', ( #51 ) ) ;
#670 = STYLED_ITEM ( 'NONE', ( #965 ), #370 ) ;
#671 = DIRECTION ( 'NONE',  ( -0.0000000000000000000, -0.0000000000000000000, -1.000000000000000000 ) ) ;
#672 = VERTEX_POINT ( 'NONE', #685 ) ;
#673 = VECTOR ( 'NONE', #830, 1000.000000000000000 ) ;
#674 = FILL_AREA_STYLE ('',( #1120 ) ) ;
#675 = AXIS2_PLACEMENT_3D ( 'NONE', #1088, #388, #903 ) ;
#676 = UNCERTAINTY_MEASURE_WITH_UNIT (LENGTH_MEASURE( 1.000000000000000082E-05 ), #415, 'distance_accuracy_value', 'NONE');
#677 = PRESENTATION_STYLE_ASSIGNMENT (( #1123 ) ) ;
#678 = LINE ( 'NONE', #138, #871 ) ;
#679 = DIRECTION ( 'NONE',  ( 1.000000000000000000, 1.275531967630000069E-16, 0.0000000000000000000 ) ) ;
#680 = VERTEX_POINT ( 'NONE', #961 ) ;
#681 = CARTESIAN_POINT ( 'NONE',  ( -0.2499999999999967526, -0.9499999999999999556, -2.600000000000000533 ) ) ;
#682 = ADVANCED_FACE ( 'NONE', ( #1044 ), #865, .T. ) ;
#683 = CARTESIAN_POINT ( 'NONE',  ( -3.399999999999999911, 2.350000000000000089, 7.299999999999999822 ) ) ;
#684 = ORIENTED_EDGE ( 'NONE', *, *, #6, .F. ) ;
#685 = CARTESIAN_POINT ( 'NONE',  ( 2.880436811286763099, -0.4121823583948645564, 8.199999999999999289 ) ) ;
#686 = CIRCLE ( 'NONE', #173, 0.9000000000000002442 ) ;
#687 = LINE ( 'NONE', #54, #709 ) ;
#688 = ORIENTED_EDGE ( 'NONE', *, *, #552, .T. ) ;
#689 = MECHANICAL_DESIGN_GEOMETRIC_PRESENTATION_REPRESENTATION (  '', ( #1103 ), #1028 ) ;
#690 = PRESENTATION_LAYER_ASSIGNMENT (  '', '', ( #200 ) ) ;
#691 = SURFACE_STYLE_FILL_AREA ( #427 ) ;
#692 =( GEOMETRIC_REPRESENTATION_CONTEXT ( 3 ) GLOBAL_UNCERTAINTY_ASSIGNED_CONTEXT ( ( #418 ) ) GLOBAL_UNIT_ASSIGNED_CONTEXT ( ( #245, #721, #270 ) ) REPRESENTATION_CONTEXT ( 'NONE', 'WORKASPACE' ) );
#693 = CARTESIAN_POINT ( 'NONE',  ( -3.399999999999999911, 2.350000000000000089, 0.0000000000000000000 ) ) ;
#694 = EDGE_CURVE ( 'NONE', #872, #614, #295, .T. ) ;
#695 = LINE ( 'NONE', #773, #1070 ) ;
#696 = ORIENTED_EDGE ( 'NONE', *, *, #63, .T. ) ;
#697 = SURFACE_STYLE_USAGE ( .BOTH. , #113 ) ;
#698 =( NAMED_UNIT ( * ) PLANE_ANGLE_UNIT ( ) SI_UNIT ( $, .RADIAN. ) );
#699 = ORIENTED_EDGE ( 'NONE', *, *, #980, .F. ) ;
#700 = CARTESIAN_POINT ( 'NONE',  ( -2.799999999999999822, -2.350000000000000089, 0.0000000000000000000 ) ) ;
#701 = SURFACE_STYLE_USAGE ( .BOTH. , #791 ) ;
#702 = PRESENTATION_STYLE_ASSIGNMENT (( #145 ) ) ;
#703 = FACE_OUTER_BOUND ( 'NONE', #492, .T. ) ;
#704 =( NAMED_UNIT ( * ) PLANE_ANGLE_UNIT ( ) SI_UNIT ( $, .RADIAN. ) );
#705 = AXIS2_PLACEMENT_3D ( 'NONE', #667, #309, #1027 ) ;
#706 = STYLED_ITEM ( 'NONE', ( #804 ), #857 ) ;
#707 = APPLICATION_CONTEXT ( 'automotive_design' ) ;
#708 = LINE ( 'NONE', #693, #974 ) ;
#709 = VECTOR ( 'NONE', #768, 1000.000000000000000 ) ;
#710 = DIRECTION ( 'NONE',  ( -1.000000000000000000, 0.0000000000000000000, 0.0000000000000000000 ) ) ;
#711 = CARTESIAN_POINT ( 'NONE',  ( 0.2500000000000032752, -0.9499999999999999556, -2.600000000000000533 ) ) ;
#712 = ADVANCED_FACE ( 'NONE', ( #638 ), #4, .F. ) ;
#713 = DIRECTION ( 'NONE',  ( -0.0000000000000000000, -0.0000000000000000000, -1.000000000000000000 ) ) ;
#714 = SURFACE_SIDE_STYLE ('',( #553 ) ) ;
#715 =( NAMED_UNIT ( * ) SI_UNIT ( $, .STERADIAN. ) SOLID_ANGLE_UNIT ( ) );
#716 = ORIENTED_EDGE ( 'NONE', *, *, #505, .T. ) ;
#717 = FILL_AREA_STYLE ('',( #530 ) ) ;
#718 = SURFACE_SIDE_STYLE ('',( #272 ) ) ;
#719 = SURFACE_STYLE_FILL_AREA ( #543 ) ;
#720 =( NAMED_UNIT ( * ) PLANE_ANGLE_UNIT ( ) SI_UNIT ( $, .RADIAN. ) );
#721 =( NAMED_UNIT ( * ) PLANE_ANGLE_UNIT ( ) SI_UNIT ( $, .RADIAN. ) );
#722 = VERTEX_POINT ( 'NONE', #192 ) ;
#723 =( GEOMETRIC_REPRESENTATION_CONTEXT ( 3 ) GLOBAL_UNCERTAINTY_ASSIGNED_CONTEXT ( ( #551 ) ) GLOBAL_UNIT_ASSIGNED_CONTEXT ( ( #1080, #656, #92 ) ) REPRESENTATION_CONTEXT ( 'NONE', 'WORKASPACE' ) );
#724 = COLOUR_RGB ( '',0.0000000000000000000, 0.0000000000000000000, 1.000000000000000000 ) ;
#725 = SURFACE_STYLE_USAGE ( .BOTH. , #185 ) ;
#726 =( GEOMETRIC_REPRESENTATION_CONTEXT ( 3 ) GLOBAL_UNCERTAINTY_ASSIGNED_CONTEXT ( ( #238 ) ) GLOBAL_UNIT_ASSIGNED_CONTEXT ( ( #776, #525, #343 ) ) REPRESENTATION_CONTEXT ( 'NONE', 'WORKASPACE' ) );
#727 = DIRECTION ( 'NONE',  ( 0.0000000000000000000, 0.0000000000000000000, -1.000000000000000000 ) ) ;
#728 = AXIS2_PLACEMENT_3D ( 'NONE', #271, #648, #802 ) ;
#729 = COLOUR_RGB ( '',0.0000000000000000000, 0.0000000000000000000, 1.000000000000000000 ) ;
#730 = SURFACE_STYLE_FILL_AREA ( #919 ) ;
#731 = EDGE_CURVE ( 'NONE', #680, #614, #915, .T. ) ;
#732 = FILL_AREA_STYLE_COLOUR ( '', #1052 ) ;
#733 = ORIENTED_EDGE ( 'NONE', *, *, #149, .F. ) ;
#734 = FILL_AREA_STYLE ('',( #10 ) ) ;
#735 = CARTESIAN_POINT ( 'NONE',  ( 3.200000000000000178, -1.100000000000000089, 8.199999999999999289 ) ) ;
#736 = ORIENTED_EDGE ( 'NONE', *, *, #1026, .T. ) ;
#737 = PLANE ( 'NONE',  #239 ) ;
#738 = DIRECTION ( 'NONE',  ( 1.000000000000000000, 0.0000000000000000000, -0.0000000000000000000 ) ) ;
#739 = ORIENTED_EDGE ( 'NONE', *, *, #941, .F. ) ;
#740 = DIRECTION ( 'NONE',  ( -0.0000000000000000000, -1.000000000000000000, -0.0000000000000000000 ) ) ;
#741 = VECTOR ( 'NONE', #587, 1000.000000000000000 ) ;
#742 = FACE_BOUND ( 'NONE', #1144, .T. ) ;
#743 = PRESENTATION_LAYER_ASSIGNMENT (  '', '', ( #78 ) ) ;
#744 =( LENGTH_UNIT ( ) NAMED_UNIT ( * ) SI_UNIT ( .MILLI., .METRE. ) );
#745 = STYLED_ITEM ( 'NONE', ( #107 ), #442 ) ;
#746 = LINE ( 'NONE', #1002, #273 ) ;
#747 = CARTESIAN_POINT ( 'NONE',  ( 2.299999999999999822, -1.100000000000000089, 7.299999999999999822 ) ) ;
#748 = VERTEX_POINT ( 'NONE', #909 ) ;
#749 = CARTESIAN_POINT ( 'NONE',  ( 2.299999999999999822, -1.100000000000000089, 8.199999999999999289 ) ) ;
#750 = PRESENTATION_STYLE_ASSIGNMENT (( #1077 ) ) ;
#751 = EDGE_CURVE ( 'NONE', #465, #906, #1050, .T. ) ;
#752 = PLANE ( 'NONE',  #198 ) ;
#753 = EDGE_LOOP ( 'NONE', ( #578, #927, #403 ) ) ;
#754 = DIRECTION ( 'NONE',  ( -1.000000000000000000, 0.0000000000000000000, 0.0000000000000000000 ) ) ;
#755 = FACE_BOUND ( 'NONE', #769, .T. ) ;
#756 = VERTEX_POINT ( 'NONE', #1098 ) ;
#757 = DIRECTION ( 'NONE',  ( 0.0000000000000000000, 0.0000000000000000000, 1.000000000000000000 ) ) ;
#758 = FILL_AREA_STYLE_COLOUR ( '', #724 ) ;
#759 =( GEOMETRIC_REPRESENTATION_CONTEXT ( 3 ) GLOBAL_UNCERTAINTY_ASSIGNED_CONTEXT ( ( #472 ) ) GLOBAL_UNIT_ASSIGNED_CONTEXT ( ( #744, #593, #586 ) ) REPRESENTATION_CONTEXT ( 'NONE', 'WORKASPACE' ) );
#760 = DIRECTION ( 'NONE',  ( 1.000000000000000000, 0.0000000000000000000, -0.0000000000000000000 ) ) ;
#761 = COLOUR_RGB ( '',0.7921568627450980005, 0.8196078431372548767, 0.9333333333333333481 ) ;
#762 =( GEOMETRIC_REPRESENTATION_CONTEXT ( 3 ) GLOBAL_UNCERTAINTY_ASSIGNED_CONTEXT ( ( #405 ) ) GLOBAL_UNIT_ASSIGNED_CONTEXT ( ( #1092, #632, #179 ) ) REPRESENTATION_CONTEXT ( 'NONE', 'WORKASPACE' ) );
#763 = ORIENTED_EDGE ( 'NONE', *, *, #364, .T. ) ;
#764 = EDGE_CURVE ( 'NONE', #989, #345, #993, .T. ) ;
#765 = AXIS2_PLACEMENT_3D ( 'NONE', #885, #356, #1073 ) ;
#766 = CARTESIAN_POINT ( 'NONE',  ( -3.399999999999999911, 2.350000000000000089, 7.299999999999999822 ) ) ;
#767 =( NAMED_UNIT ( * ) PLANE_ANGLE_UNIT ( ) SI_UNIT ( $, .RADIAN. ) );
#768 = DIRECTION ( 'NONE',  ( -1.000000000000000000, -1.275531967630000069E-16, -0.0000000000000000000 ) ) ;
#769 = EDGE_LOOP ( 'NONE', ( #223, #647 ) ) ;
#770 = LINE ( 'NONE', #951, #84 ) ;
#771 = CARTESIAN_POINT ( 'NONE',  ( -2.540000000000000036, 1.590000000000000080, -2.600000000000000533 ) ) ;
#772 =( NAMED_UNIT ( * ) SI_UNIT ( $, .STERADIAN. ) SOLID_ANGLE_UNIT ( ) );
#773 = CARTESIAN_POINT ( 'NONE',  ( -3.399999999999999911, 2.350000000000000089, 0.0000000000000000000 ) ) ;
#774 = ORIENTED_EDGE ( 'NONE', *, *, #511, .F. ) ;
#775 = CARTESIAN_POINT ( 'NONE',  ( -2.540000000000000036, 1.590000000000000080, -2.600000000000000533 ) ) ;
#776 =( LENGTH_UNIT ( ) NAMED_UNIT ( * ) SI_UNIT ( .MILLI., .METRE. ) );
#777 = ADVANCED_FACE ( 'NONE', ( #108 ), #473, .T. ) ;
#778 = CLOSED_SHELL ( 'NONE', ( #370, #997, #489, #184, #849, #832, #712, #332, #882, #299, #53, #400, #777, #682, #232, #857, #305, #1140, #643, #97, #23, #263, #900, #357, #442, #1012 ) ) ;
#779 = DIRECTION ( 'NONE',  ( -1.000000000000000000, 0.0000000000000000000, 0.0000000000000000000 ) ) ;
#780 = ORIENTED_EDGE ( 'NONE', *, *, #908, .F. ) ;
#781 = DIRECTION ( 'NONE',  ( 0.0000000000000000000, 0.0000000000000000000, 1.000000000000000000 ) ) ;
#782 = VECTOR ( 'NONE', #9, 1000.000000000000000 ) ;
#783 = AXIS2_PLACEMENT_3D ( 'NONE', #841, #757, #118 ) ;
#784 = VECTOR ( 'NONE', #114, 1000.000000000000000 ) ;
#785 = CARTESIAN_POINT ( 'NONE',  ( -2.290000000000000480, 1.590000000000000080, -2.600000000000000533 ) ) ;
#786 = ORIENTED_EDGE ( 'NONE', *, *, #751, .F. ) ;
#787 = FACE_OUTER_BOUND ( 'NONE', #1127, .T. ) ;
#788 = ORIENTED_EDGE ( 'NONE', *, *, #167, .T. ) ;
#789 = CARTESIAN_POINT ( 'NONE',  ( -3.399999999999999911, 2.350000000000000089, 0.0000000000000000000 ) ) ;
#790 = ORIENTED_EDGE ( 'NONE', *, *, #731, .F. ) ;
#791 = SURFACE_SIDE_STYLE ('',( #1053 ) ) ;
#792 = SURFACE_STYLE_USAGE ( .BOTH. , #264 ) ;
#793 = ORIENTED_EDGE ( 'NONE', *, *, #83, .F. ) ;
#794 = VECTOR ( 'NONE', #336, 1000.000000000000000 ) ;
#795 = MECHANICAL_DESIGN_GEOMETRIC_PRESENTATION_REPRESENTATION (  '', ( #154 ), #426 ) ;
#796 = EDGE_CURVE ( 'NONE', #1051, #424, #1031, .T. ) ;
#797 =( GEOMETRIC_REPRESENTATION_CONTEXT ( 3 ) GLOBAL_UNCERTAINTY_ASSIGNED_CONTEXT ( ( #42 ) ) GLOBAL_UNIT_ASSIGNED_CONTEXT ( ( #7, #1007, #215 ) ) REPRESENTATION_CONTEXT ( 'NONE', 'WORKASPACE' ) );
#798 = DIRECTION ( 'NONE',  ( -1.000000000000000000, 0.0000000000000000000, 0.0000000000000000000 ) ) ;
#799 = COLOUR_RGB ( '',0.7490196078431372584, 0.7490196078431372584, 0.7490196078431372584 ) ;
#800 = PRESENTATION_LAYER_ASSIGNMENT (  '', '', ( #139 ) ) ;
#801 = EDGE_LOOP ( 'NONE', ( #981, #269, #1119, #774 ) ) ;
#802 = DIRECTION ( 'NONE',  ( 0.7986355100472930513, 0.6018150231520480453, 0.0000000000000000000 ) ) ;
#803 = FILL_AREA_STYLE_COLOUR ( '', #481 ) ;
#804 = PRESENTATION_STYLE_ASSIGNMENT (( #448 ) ) ;
#805 =( NAMED_UNIT ( * ) PLANE_ANGLE_UNIT ( ) SI_UNIT ( $, .RADIAN. ) );
#806 = EDGE_CURVE ( 'NONE', #884, #1057, #600, .T. ) ;
#807 = SURFACE_STYLE_USAGE ( .BOTH. , #714 ) ;
#808 = DIRECTION ( 'NONE',  ( 0.0000000000000000000, 0.0000000000000000000, 1.000000000000000000 ) ) ;
#809 = SURFACE_STYLE_FILL_AREA ( #28 ) ;
#810 = ORIENTED_EDGE ( 'NONE', *, *, #980, .T. ) ;
#811 = MECHANICAL_DESIGN_GEOMETRIC_PRESENTATION_REPRESENTATION (  '', ( #934 ), #723 ) ;
#812 =( NAMED_UNIT ( * ) SI_UNIT ( $, .STERADIAN. ) SOLID_ANGLE_UNIT ( ) );
#813 = AXIS2_PLACEMENT_3D ( 'NONE', #789, #1064, #68 ) ;
#814 =( GEOMETRIC_REPRESENTATION_CONTEXT ( 3 ) GLOBAL_UNCERTAINTY_ASSIGNED_CONTEXT ( ( #91 ) ) GLOBAL_UNIT_ASSIGNED_CONTEXT ( ( #503, #61, #330 ) ) REPRESENTATION_CONTEXT ( 'NONE', 'WORKASPACE' ) );
#815 = CARTESIAN_POINT ( 'NONE',  ( 2.299999999999999822, -1.100000000000000089, 8.199999999999999289 ) ) ;
#816 = PRESENTATION_LAYER_ASSIGNMENT (  '', '', ( #1106 ) ) ;
#817 =( LENGTH_UNIT ( ) NAMED_UNIT ( * ) SI_UNIT ( .MILLI., .METRE. ) );
#818 = CIRCLE ( 'NONE', #1107, 0.9000000000000002442 ) ;
#819 = EDGE_CURVE ( 'NONE', #433, #906, #770, .T. ) ;
#820 = CIRCLE ( 'NONE', #955, 0.2500000000000000000 ) ;
#821 = ORIENTED_EDGE ( 'NONE', *, *, #242, .F. ) ;
#822 = DIRECTION ( 'NONE',  ( 0.0000000000000000000, 0.0000000000000000000, 1.000000000000000000 ) ) ;
#823 = UNCERTAINTY_MEASURE_WITH_UNIT (LENGTH_MEASURE( 1.000000000000000082E-05 ), #817, 'distance_accuracy_value', 'NONE');
#824 =( NAMED_UNIT ( * ) SI_UNIT ( $, .STERADIAN. ) SOLID_ANGLE_UNIT ( ) );
#825 = APPLICATION_PROTOCOL_DEFINITION ( 'draft international standard', 'automotive_design', 1998, #1160 ) ;
#826 = VERTEX_POINT ( 'NONE', #337 ) ;
#827 = CARTESIAN_POINT ( 'NONE',  ( 2.540000000000000036, 1.590000000000000080, -2.600000000000000533 ) ) ;
#828 = FACE_OUTER_BOUND ( 'NONE', #845, .T. ) ;
#829 = CARTESIAN_POINT ( 'NONE',  ( 0.2500000000000032752, -0.9499999999999999556, 0.4000000000000001887 ) ) ;
#830 = DIRECTION ( 'NONE',  ( 0.0000000000000000000, -0.0000000000000000000, -1.000000000000000000 ) ) ;
#831 = ORIENTED_EDGE ( 'NONE', *, *, #83, .T. ) ;
#832 = ADVANCED_FACE ( 'NONE', ( #1132, #970, #834, #742 ), #298, .T. ) ;
#833 =( LENGTH_UNIT ( ) NAMED_UNIT ( * ) SI_UNIT ( .MILLI., .METRE. ) );
#834 = FACE_BOUND ( 'NONE', #8, .T. ) ;
#835 = PRESENTATION_LAYER_ASSIGNMENT (  '', '', ( #154 ) ) ;
#836 = AXIS2_PLACEMENT_3D ( 'NONE', #440, #262, #798 ) ;
#837 =( GEOMETRIC_REPRESENTATION_CONTEXT ( 3 ) GLOBAL_UNCERTAINTY_ASSIGNED_CONTEXT ( ( #488 ) ) GLOBAL_UNIT_ASSIGNED_CONTEXT ( ( #542, #805, #824 ) ) REPRESENTATION_CONTEXT ( 'NONE', 'WORKASPACE' ) );
#838 = SURFACE_SIDE_STYLE ('',( #545 ) ) ;
#839 =( GEOMETRIC_REPRESENTATION_CONTEXT ( 3 ) GLOBAL_UNCERTAINTY_ASSIGNED_CONTEXT ( ( #125 ) ) GLOBAL_UNIT_ASSIGNED_CONTEXT ( ( #362, #342, #982 ) ) REPRESENTATION_CONTEXT ( 'NONE', 'WORKASPACE' ) );
#840 = ORIENTED_EDGE ( 'NONE', *, *, #541, .T. ) ;
#841 = CARTESIAN_POINT ( 'NONE',  ( 2.540000000000000036, 1.590000000000000080, 0.4000000000000001887 ) ) ;
#842 = SURFACE_SIDE_STYLE ('',( #568 ) ) ;
#843 = CARTESIAN_POINT ( 'NONE',  ( 2.799999999999999378, -2.350000000000000533, 0.4000000000000000777 ) ) ;
#844 = CARTESIAN_POINT ( 'NONE',  ( -0.2499999999999967526, -0.9499999999999999556, -2.600000000000000533 ) ) ;
#845 = EDGE_LOOP ( 'NONE', ( #790, #498, #1062, #259, #361, #786, #1016, #546 ) ) ;
#846 = DIRECTION ( 'NONE',  ( 1.000000000000000000, 0.0000000000000000000, 0.0000000000000000000 ) ) ;
#847 = UNCERTAINTY_MEASURE_WITH_UNIT (LENGTH_MEASURE( 1.000000000000000082E-05 ), #439, 'distance_accuracy_value', 'NONE');
#848 =( LENGTH_UNIT ( ) NAMED_UNIT ( * ) SI_UNIT ( .MILLI., .METRE. ) );
#849 = ADVANCED_FACE ( 'NONE', ( #590 ), #328, .F. ) ;
#850 = DIRECTION ( 'NONE',  ( -0.0000000000000000000, 0.0000000000000000000, 1.000000000000000000 ) ) ;
#851 = FILL_AREA_STYLE ('',( #35 ) ) ;
#852 = CARTESIAN_POINT ( 'NONE',  ( -2.799999999999999822, 2.349999999999999645, 0.0000000000000000000 ) ) ;
#853 = DIRECTION ( 'NONE',  ( 0.7986355100472923851, 0.6018150231520488225, 0.0000000000000000000 ) ) ;
#854 = PRESENTATION_LAYER_ASSIGNMENT (  '', '', ( #348 ) ) ;
#855 = VECTOR ( 'NONE', #853, 1000.000000000000227 ) ;
#856 = VECTOR ( 'NONE', #523, 1000.000000000000000 ) ;
#857 = ADVANCED_FACE ( 'NONE', ( #261 ), #899, .F. ) ;
#858 = PLANE ( 'NONE',  #913 ) ;
#859 = AXIS2_PLACEMENT_3D ( 'NONE', #1040, #316, #846 ) ;
#860 = ORIENTED_EDGE ( 'NONE', *, *, #117, .F. ) ;
#861 = STYLED_ITEM ( 'NONE', ( #142 ), #832 ) ;
#862 =( NAMED_UNIT ( * ) SI_UNIT ( $, .STERADIAN. ) SOLID_ANGLE_UNIT ( ) );
#863 = STYLED_ITEM ( 'NONE', ( #419 ), #1012 ) ;
#864 = UNCERTAINTY_MEASURE_WITH_UNIT (LENGTH_MEASURE( 1.000000000000000082E-05 ), #148, 'distance_accuracy_value', 'NONE');
#865 = CYLINDRICAL_SURFACE ( 'NONE', #373, 0.2499999999999997780 ) ;
#866 = CARTESIAN_POINT ( 'NONE',  ( -3.399999999999999911, -2.350000000000000089, 0.0000000000000000000 ) ) ;
#867 = CARTESIAN_POINT ( 'NONE',  ( 2.540000000000000036, 1.590000000000000080, -2.600000000000000533 ) ) ;
#868 = ORIENTED_EDGE ( 'NONE', *, *, #963, .F. ) ;
#869 = EDGE_CURVE ( 'NONE', #94, #756, #71, .T. ) ;
#870 = PRESENTATION_STYLE_ASSIGNMENT (( #701 ) ) ;
#871 = VECTOR ( 'NONE', #27, 1000.000000000000000 ) ;
#872 = VERTEX_POINT ( 'NONE', #615 ) ;
#873 = COLOUR_RGB ( '',0.7490196078431372584, 0.7490196078431372584, 0.7490196078431372584 ) ;
#874 = ORIENTED_EDGE ( 'NONE', *, *, #494, .T. ) ;
#875 = CIRCLE ( 'NONE', #956, 0.2499999999999997780 ) ;
#876 = SURFACE_STYLE_FILL_AREA ( #717 ) ;
#877 = AXIS2_PLACEMENT_3D ( 'NONE', #486, #1104, #940 ) ;
#878 = SURFACE_STYLE_USAGE ( .BOTH. , #612 ) ;
#879 = COLOUR_RGB ( '',0.0000000000000000000, 0.0000000000000000000, 1.000000000000000000 ) ;
#880 = EDGE_LOOP ( 'NONE', ( #624, #367, #840, #788 ) ) ;
#881 = DIRECTION ( 'NONE',  ( -0.7986355100472930513, -0.6018150231520480453, 0.0000000000000000000 ) ) ;
#882 = ADVANCED_FACE ( 'NONE', ( #182 ), #1067, .F. ) ;
#883 =( NAMED_UNIT ( * ) PLANE_ANGLE_UNIT ( ) SI_UNIT ( $, .RADIAN. ) );
#884 = VERTEX_POINT ( 'NONE', #266 ) ;
#885 = CARTESIAN_POINT ( 'NONE',  ( 3.399999999999999911, -2.350000000000000089, 7.299999999999999822 ) ) ;
#886 = DIRECTION ( 'NONE',  ( -1.000000000000000000, 0.0000000000000000000, 0.0000000000000000000 ) ) ;
#887 =( LENGTH_UNIT ( ) NAMED_UNIT ( * ) SI_UNIT ( .MILLI., .METRE. ) );
#888 = ORIENTED_EDGE ( 'NONE', *, *, #990, .T. ) ;
#889 = AXIS2_PLACEMENT_3D ( 'NONE', #88, #808, #366 ) ;
#890 = CARTESIAN_POINT ( 'NONE',  ( 3.399999999999999911, 2.350000000000000089, 7.299999999999999822 ) ) ;
#891 = MECHANICAL_DESIGN_GEOMETRIC_PRESENTATION_REPRESENTATION (  '', ( #78 ), #135 ) ;
#892 = COLOUR_RGB ( '',0.0000000000000000000, 0.0000000000000000000, 1.000000000000000000 ) ;
#893 = PRESENTATION_STYLE_ASSIGNMENT (( #725 ) ) ;
#894 = STYLED_ITEM ( 'NONE', ( #189 ), #997 ) ;
#895 = CARTESIAN_POINT ( 'NONE',  ( -3.399999999999999911, 2.350000000000000089, 7.299999999999999822 ) ) ;
#896 = FILL_AREA_STYLE_COLOUR ( '', #459 ) ;
#897 = FILL_AREA_STYLE ('',( #968 ) ) ;
#898 = FILL_AREA_STYLE ('',( #17 ) ) ;
#899 = PLANE ( 'NONE',  #49 ) ;
#900 = ADVANCED_FACE ( 'NONE', ( #625 ), #93, .F. ) ;
#901 = DIRECTION ( 'NONE',  ( -1.000000000000000000, 0.0000000000000000000, 0.0000000000000000000 ) ) ;
#902 = PRESENTATION_STYLE_ASSIGNMENT (( #627 ) ) ;
#903 = DIRECTION ( 'NONE',  ( 1.000000000000000000, 0.0000000000000000000, 0.0000000000000000000 ) ) ;
#904 = DIRECTION ( 'NONE',  ( -0.0000000000000000000, 0.0000000000000000000, 1.000000000000000000 ) ) ;
#905 = CARTESIAN_POINT ( 'NONE',  ( 1.478837179452420880, -1.468363437586221787, 7.799999999999999822 ) ) ;
#906 = VERTEX_POINT ( 'NONE', #210 ) ;
#907 = UNCERTAINTY_MEASURE_WITH_UNIT (LENGTH_MEASURE( 1.000000000000000082E-05 ), #249, 'distance_accuracy_value', 'NONE');
#908 = EDGE_CURVE ( 'NONE', #722, #566, #920, .T. ) ;
#909 = CARTESIAN_POINT ( 'NONE',  ( 2.790000000000000036, 1.590000000000000080, 0.4000000000000001887 ) ) ;
#910 = FILL_AREA_STYLE ('',( #548 ) ) ;
#911 =( LENGTH_UNIT ( ) NAMED_UNIT ( * ) SI_UNIT ( .MILLI., .METRE. ) );
#912 = EDGE_LOOP ( 'NONE', ( #1083, #392, #831, #19 ) ) ;
#913 = AXIS2_PLACEMENT_3D ( 'NONE', #312, #504, #944 ) ;
#914 = CIRCLE ( 'NONE', #705, 0.2500000000000000000 ) ;
#915 = LINE ( 'NONE', #988, #579 ) ;
#916 = CIRCLE ( 'NONE', #783, 0.2499999999999997780 ) ;
#917 =( NAMED_UNIT ( * ) PLANE_ANGLE_UNIT ( ) SI_UNIT ( $, .RADIAN. ) );
#918 = PRESENTATION_LAYER_ASSIGNMENT (  '', '', ( #863 ) ) ;
#919 = FILL_AREA_STYLE ('',( #640 ) ) ;
#920 = LINE ( 'NONE', #570, #673 ) ;
#921 = ORIENTED_EDGE ( 'NONE', *, *, #751, .T. ) ;
#922 = DIRECTION ( 'NONE',  ( 1.275531967630000069E-16, 1.000000000000000000, -0.0000000000000000000 ) ) ;
#923 = UNCERTAINTY_MEASURE_WITH_UNIT (LENGTH_MEASURE( 1.000000000000000082E-05 ), #583, 'distance_accuracy_value', 'NONE');
#924 = CARTESIAN_POINT ( 'NONE',  ( 2.299999999999999822, -1.100000000000000089, 8.199999999999999289 ) ) ;
#925 = EDGE_CURVE ( 'NONE', #206, #101, #565, .T. ) ;
#926 = CARTESIAN_POINT ( 'NONE',  ( 2.799999999999999822, 2.350000000000000089, 0.0000000000000000000 ) ) ;
#927 = ORIENTED_EDGE ( 'NONE', *, *, #520, .F. ) ;
#928 = CARTESIAN_POINT ( 'NONE',  ( 2.299999999999999822, -1.100000000000000089, 8.199999999999999289 ) ) ;
#929 = LINE ( 'NONE', #557, #784 ) ;
#930 = EDGE_CURVE ( 'NONE', #906, #1155, #307, .T. ) ;
#931 = ORIENTED_EDGE ( 'NONE', *, *, #869, .T. ) ;
#932 = DIRECTION ( 'NONE',  ( -0.0000000000000000000, -0.0000000000000000000, -1.000000000000000000 ) ) ;
#933 = UNCERTAINTY_MEASURE_WITH_UNIT (LENGTH_MEASURE( 1.000000000000000082E-05 ), #645, 'distance_accuracy_value', 'NONE');
#934 = STYLED_ITEM ( 'NONE', ( #1099 ), #33 ) ;
#935 = AXIS2_PLACEMENT_3D ( 'NONE', #527, #166, #352 ) ;
#936 = FACE_OUTER_BOUND ( 'NONE', #341, .T. ) ;
#937 = DIRECTION ( 'NONE',  ( -1.000000000000000000, 0.0000000000000000000, 0.0000000000000000000 ) ) ;
#938 = STYLED_ITEM ( 'NONE', ( #382 ), #712 ) ;
#939 = EDGE_LOOP ( 'NONE', ( #496, #152, #319, #380 ) ) ;
#940 = DIRECTION ( 'NONE',  ( 1.000000000000000000, 0.0000000000000000000, 0.0000000000000000000 ) ) ;
#941 = EDGE_CURVE ( 'NONE', #680, #308, #818, .T. ) ;
#942 = DIRECTION ( 'NONE',  ( 1.000000000000000000, 0.0000000000000000000, -0.0000000000000000000 ) ) ;
#943 = CARTESIAN_POINT ( 'NONE',  ( -2.790000000000000036, 1.590000000000000080, 0.4000000000000001887 ) ) ;
#944 = DIRECTION ( 'NONE',  ( 1.000000000000000000, 0.0000000000000000000, -0.0000000000000000000 ) ) ;
#945 = ORIENTED_EDGE ( 'NONE', *, *, #130, .F. ) ;
#946 = LINE ( 'NONE', #30, #158 ) ;
#947 = CARTESIAN_POINT ( 'NONE',  ( 2.880436811286765764, -0.4121823583948666103, 7.799999999999999822 ) ) ;
#948 = FILL_AREA_STYLE_COLOUR ( '', #972 ) ;
#949 = SURFACE_SIDE_STYLE ('',( #408 ) ) ;
#950 = EDGE_LOOP ( 'NONE', ( #969, #55 ) ) ;
#951 = CARTESIAN_POINT ( 'NONE',  ( 1.719563188713237656, -1.787817641605136787, 7.799999999999999822 ) ) ;
#952 = FACE_OUTER_BOUND ( 'NONE', #950, .T. ) ;
#953 = STYLED_ITEM ( 'NONE', ( #122 ), #97 ) ;
#954 =( NAMED_UNIT ( * ) PLANE_ANGLE_UNIT ( ) SI_UNIT ( $, .RADIAN. ) );
#955 = AXIS2_PLACEMENT_3D ( 'NONE', #605, #495, #779 ) ;
#956 = AXIS2_PLACEMENT_3D ( 'NONE', #644, #637, #901 ) ;
#957 = CARTESIAN_POINT ( 'NONE',  ( 2.290000000000000480, 1.590000000000000080, -2.600000000000000533 ) ) ;
#958 = COLOUR_RGB ( '',0.0000000000000000000, 0.0000000000000000000, 1.000000000000000000 ) ;
#959 =( GEOMETRIC_REPRESENTATION_CONTEXT ( 3 ) GLOBAL_UNCERTAINTY_ASSIGNED_CONTEXT ( ( #847 ) ) GLOBAL_UNIT_ASSIGNED_CONTEXT ( ( #439, #704, #986 ) ) REPRESENTATION_CONTEXT ( 'NONE', 'WORKASPACE' ) );
#960 = SURFACE_SIDE_STYLE ('',( #606 ) ) ;
#961 = CARTESIAN_POINT ( 'NONE',  ( 1.399999999999999689, -1.099999999999999867, 7.299999999999999822 ) ) ;
#962 = DIRECTION ( 'NONE',  ( -1.000000000000000000, -0.0000000000000000000, 0.0000000000000000000 ) ) ;
#963 = EDGE_CURVE ( 'NONE', #465, #872, #197, .T. ) ;
#964 =( NAMED_UNIT ( * ) SI_UNIT ( $, .STERADIAN. ) SOLID_ANGLE_UNIT ( ) );
#965 = PRESENTATION_STYLE_ASSIGNMENT (( #878 ) ) ;
#966 = FACE_OUTER_BOUND ( 'NONE', #456, .T. ) ;
#967 = EDGE_LOOP ( 'NONE', ( #164, #1116, #447, #141, #763, #699, #736, #510 ) ) ;
#968 = FILL_AREA_STYLE_COLOUR ( '', #761 ) ;
#969 = ORIENTED_EDGE ( 'NONE', *, *, #1165, .F. ) ;
#970 = FACE_BOUND ( 'NONE', #998, .T. ) ;
#971 =( LENGTH_UNIT ( ) NAMED_UNIT ( * ) SI_UNIT ( .MILLI., .METRE. ) );
#972 = COLOUR_RGB ( '',0.7490196078431372584, 0.7490196078431372584, 0.7490196078431372584 ) ;
#973 = FILL_AREA_STYLE_COLOUR ( '', #873 ) ;
#974 = VECTOR ( 'NONE', #962, 1000.000000000000000 ) ;
#975 = LINE ( 'NONE', #528, #856 ) ;
#976 =( GEOMETRIC_REPRESENTATION_CONTEXT ( 3 ) GLOBAL_UNCERTAINTY_ASSIGNED_CONTEXT ( ( #225 ) ) GLOBAL_UNIT_ASSIGNED_CONTEXT ( ( #340, #883, #432 ) ) REPRESENTATION_CONTEXT ( 'NONE', 'WORKASPACE' ) );
#977 = VERTEX_POINT ( 'NONE', #99 ) ;
#978 = AXIS2_PLACEMENT_3D ( 'NONE', #924, #180, #1011 ) ;
#979 = PRODUCT_DEFINITION_FORMATION_WITH_SPECIFIED_SOURCE ( 'ANY', '', #64, .NOT_KNOWN. ) ;
#980 = EDGE_CURVE ( 'NONE', #484, #884, #1024, .T. ) ;
#981 = ORIENTED_EDGE ( 'NONE', *, *, #6, .T. ) ;
#982 =( NAMED_UNIT ( * ) SI_UNIT ( $, .STERADIAN. ) SOLID_ANGLE_UNIT ( ) );
#983 = PLANE ( 'NONE',  #992 ) ;
#984 = EDGE_CURVE ( 'NONE', #826, #157, #1100, .T. ) ;
#985 = VERTEX_POINT ( 'NONE', #1019 ) ;
#986 =( NAMED_UNIT ( * ) SI_UNIT ( $, .STERADIAN. ) SOLID_ANGLE_UNIT ( ) );
#987 = CARTESIAN_POINT ( 'NONE',  ( -3.399999999999999911, -2.350000000000000089, 0.0000000000000000000 ) ) ;
#988 = CARTESIAN_POINT ( 'NONE',  ( 1.399999999999999689, -1.099999999999999867, 8.199999999999999289 ) ) ;
#989 = VERTEX_POINT ( 'NONE', #641 ) ;
#990 = EDGE_CURVE ( 'NONE', #354, #465, #929, .T. ) ;
#991 = FILL_AREA_STYLE ('',( #540 ) ) ;
#992 = AXIS2_PLACEMENT_3D ( 'NONE', #1159, #922, #280 ) ;
#993 = CIRCLE ( 'NONE', #25, 0.9000000000000002442 ) ;
#994 = MECHANICAL_DESIGN_GEOMETRIC_PRESENTATION_REPRESENTATION (  '', ( #139 ), #959 ) ;
#995 = PRESENTATION_STYLE_ASSIGNMENT (( #326 ) ) ;
#996 = DIRECTION ( 'NONE',  ( -0.0000000000000000000, -0.0000000000000000000, -1.000000000000000000 ) ) ;
#997 = ADVANCED_FACE ( 'NONE', ( #482 ), #1003, .T. ) ;
#998 = EDGE_LOOP ( 'NONE', ( #931, #529 ) ) ;
#999 = CARTESIAN_POINT ( 'NONE',  ( -2.799999999999999822, -2.350000000000000089, 0.4000000000000000777 ) ) ;
#1000 =( NAMED_UNIT ( * ) SI_UNIT ( $, .STERADIAN. ) SOLID_ANGLE_UNIT ( ) );
#1001 = FACE_OUTER_BOUND ( 'NONE', #642, .T. ) ;
#1002 = CARTESIAN_POINT ( 'NONE',  ( 2.799999999999999822, 2.350000000000000089, 0.4000000000000000222 ) ) ;
#1003 = CYLINDRICAL_SURFACE ( 'NONE', #653, 0.2499999999999997780 ) ;
#1004 = EDGE_LOOP ( 'NONE', ( #183, #945, #1131 ) ) ;
#1005 = LINE ( 'NONE', #987, #782 ) ;
#1006 = DIRECTION ( 'NONE',  ( 0.0000000000000000000, 0.0000000000000000000, -1.000000000000000000 ) ) ;
#1007 =( NAMED_UNIT ( * ) PLANE_ANGLE_UNIT ( ) SI_UNIT ( $, .RADIAN. ) );
#1008 = ORIENTED_EDGE ( 'NONE', *, *, #1165, .T. ) ;
#1009 =( GEOMETRIC_REPRESENTATION_CONTEXT ( 3 ) GLOBAL_UNCERTAINTY_ASSIGNED_CONTEXT ( ( #592 ) ) GLOBAL_UNIT_ASSIGNED_CONTEXT ( ( #11, #110, #1170 ) ) REPRESENTATION_CONTEXT ( 'NONE', 'WORKASPACE' ) );
#1010 = PRESENTATION_LAYER_ASSIGNMENT (  '', '', ( #1103 ) ) ;
#1011 = DIRECTION ( 'NONE',  ( 1.000000000000000000, 0.0000000000000000000, 0.0000000000000000000 ) ) ;
#1012 = ADVANCED_FACE ( 'NONE', ( #598 ), #858, .T. ) ;
#1013 = CARTESIAN_POINT ( 'NONE',  ( 0.2500000000000032752, -0.9499999999999999556, -2.600000000000000533 ) ) ;
#1014 =( GEOMETRIC_REPRESENTATION_CONTEXT ( 3 ) GLOBAL_UNCERTAINTY_ASSIGNED_CONTEXT ( ( #1134 ) ) GLOBAL_UNIT_ASSIGNED_CONTEXT ( ( #360, #609, #715 ) ) REPRESENTATION_CONTEXT ( 'NONE', 'WORKASPACE' ) );
#1015 =( LENGTH_UNIT ( ) NAMED_UNIT ( * ) SI_UNIT ( .MILLI., .METRE. ) );
#1016 = ORIENTED_EDGE ( 'NONE', *, *, #963, .T. ) ;
#1017 = UNCERTAINTY_MEASURE_WITH_UNIT (LENGTH_MEASURE( 1.000000000000000082E-05 ), #95, 'distance_accuracy_value', 'NONE');
#1018 = CARTESIAN_POINT ( 'NONE',  ( -2.799999999999999822, -2.350000000000000089, 0.4000000000000000222 ) ) ;
#1019 = CARTESIAN_POINT ( 'NONE',  ( -0.2499999999999967526, -0.9499999999999999556, 0.4000000000000001887 ) ) ;
#1020 = VERTEX_POINT ( 'NONE', #222 ) ;
#1021 = DIRECTION ( 'NONE',  ( 0.0000000000000000000, 0.0000000000000000000, 1.000000000000000000 ) ) ;
#1022 = SURFACE_STYLE_FILL_AREA ( #406 ) ;
#1023 = CARTESIAN_POINT ( 'NONE',  ( 2.540000000000000036, 1.590000000000000080, -2.600000000000000533 ) ) ;
#1024 = LINE ( 'NONE', #1176, #487 ) ;
#1025 = EDGE_LOOP ( 'NONE', ( #733, #324, #666, #684 ) ) ;
#1026 = EDGE_CURVE ( 'NONE', #484, #384, #327, .T. ) ;
#1027 = DIRECTION ( 'NONE',  ( -1.000000000000000000, 0.0000000000000000000, 0.0000000000000000000 ) ) ;
#1028 =( GEOMETRIC_REPRESENTATION_CONTEXT ( 3 ) GLOBAL_UNCERTAINTY_ASSIGNED_CONTEXT ( ( #202 ) ) GLOBAL_UNIT_ASSIGNED_CONTEXT ( ( #333, #150, #604 ) ) REPRESENTATION_CONTEXT ( 'NONE', 'WORKASPACE' ) );
#1029 = AXIS2_PLACEMENT_3D ( 'NONE', #422, #508, #881 ) ;
#1030 = DIRECTION ( 'NONE',  ( 0.0000000000000000000, 0.0000000000000000000, 1.000000000000000000 ) ) ;
#1031 = CIRCLE ( 'NONE', #619, 0.2499999999999997780 ) ;
#1032 = CARTESIAN_POINT ( 'NONE',  ( 3.399999999999999911, 2.350000000000000089, 7.299999999999999822 ) ) ;
#1033 =( GEOMETRIC_REPRESENTATION_CONTEXT ( 3 ) GLOBAL_UNCERTAINTY_ASSIGNED_CONTEXT ( ( #1121 ) ) GLOBAL_UNIT_ASSIGNED_CONTEXT ( ( #1015, #1090, #379 ) ) REPRESENTATION_CONTEXT ( 'NONE', 'WORKASPACE' ) );
#1034 = LINE ( 'NONE', #243, #260 ) ;
#1035 = ORIENTED_EDGE ( 'NONE', *, *, #421, .T. ) ;
#1036 = EDGE_CURVE ( 'NONE', #1057, #722, #687, .T. ) ;
#1037 = SURFACE_STYLE_USAGE ( .BOTH. , #585 ) ;
#1038 = FILL_AREA_STYLE ('',( #948 ) ) ;
#1039 = ORIENTED_EDGE ( 'NONE', *, *, #731, .T. ) ;
#1040 = CARTESIAN_POINT ( 'NONE',  ( 2.299999999999999822, -1.100000000000000089, 7.299999999999999822 ) ) ;
#1041 = DIRECTION ( 'NONE',  ( 0.0000000000000000000, 0.0000000000000000000, -1.000000000000000000 ) ) ;
#1042 = ORIENTED_EDGE ( 'NONE', *, *, #1078, .F. ) ;
#1043 = DIRECTION ( 'NONE',  ( -1.000000000000000000, 0.0000000000000000000, -0.0000000000000000000 ) ) ;
#1044 = FACE_OUTER_BOUND ( 'NONE', #912, .T. ) ;
#1045 = MECHANICAL_DESIGN_GEOMETRIC_PRESENTATION_REPRESENTATION (  '', ( #953 ), #597 ) ;
#1046 = EDGE_CURVE ( 'NONE', #157, #206, #423, .T. ) ;
#1047 = CARTESIAN_POINT ( 'NONE',  ( -2.799999999999999822, -2.350000000000000089, 0.4000000000000000222 ) ) ;
#1048 = MECHANICAL_DESIGN_GEOMETRIC_PRESENTATION_REPRESENTATION (  '', ( #411 ), #814 ) ;
#1049 = DIRECTION ( 'NONE',  ( 0.0000000000000000000, 0.0000000000000000000, 1.000000000000000000 ) ) ;
#1050 = CIRCLE ( 'NONE', #538, 0.9000000000000002442 ) ;
#1051 = VERTEX_POINT ( 'NONE', #957 ) ;
#1052 = COLOUR_RGB ( '',0.8666666666666666963, 0.7019607843137254388, 0.3450980392156862697 ) ;
#1053 = SURFACE_STYLE_FILL_AREA ( #512 ) ;
#1054 = APPLICATION_PROTOCOL_DEFINITION ( 'draft international standard', 'automotive_design', 1998, #707 ) ;
#1055 = EDGE_LOOP ( 'NONE', ( #287, #66, #374, #29 ) ) ;
#1056 = CYLINDRICAL_SURFACE ( 'NONE', #499, 0.2500000000000000000 ) ;
#1057 = VERTEX_POINT ( 'NONE', #509 ) ;
#1058 = SURFACE_STYLE_FILL_AREA ( #897 ) ;
#1059 = ORIENTED_EDGE ( 'NONE', *, *, #130, .T. ) ;
#1060 = SURFACE_STYLE_FILL_AREA ( #991 ) ;
#1061 = EDGE_CURVE ( 'NONE', #384, #566, #695, .T. ) ;
#1062 = ORIENTED_EDGE ( 'NONE', *, *, #277, .T. ) ;
#1063 = AXIS2_PLACEMENT_3D ( 'NONE', #181, #1006, #1168 ) ;
#1064 = DIRECTION ( 'NONE',  ( 0.0000000000000000000, 0.0000000000000000000, 1.000000000000000000 ) ) ;
#1065 = ORIENTED_EDGE ( 'NONE', *, *, #364, .F. ) ;
#1066 =( GEOMETRIC_REPRESENTATION_CONTEXT ( 3 ) GLOBAL_UNCERTAINTY_ASSIGNED_CONTEXT ( ( #2 ) ) GLOBAL_UNIT_ASSIGNED_CONTEXT ( ( #971, #698, #607 ) ) REPRESENTATION_CONTEXT ( 'NONE', 'WORKASPACE' ) );
#1067 = PLANE ( 'NONE',  #765 ) ;
#1068 = AXIS2_PLACEMENT_3D ( 'NONE', #218, #1021, #112 ) ;
#1069 = LINE ( 'NONE', #618, #461 ) ;
#1070 = VECTOR ( 'NONE', #40, 1000.000000000000000 ) ;
#1071 =( NAMED_UNIT ( * ) PLANE_ANGLE_UNIT ( ) SI_UNIT ( $, .RADIAN. ) );
#1072 = ORIENTED_EDGE ( 'NONE', *, *, #1135, .F. ) ;
#1073 = DIRECTION ( 'NONE',  ( 0.0000000000000000000, 0.0000000000000000000, 1.000000000000000000 ) ) ;
#1074 = FACE_OUTER_BOUND ( 'NONE', #1162, .T. ) ;
#1075 = ORIENTED_EDGE ( 'NONE', *, *, #796, .F. ) ;
#1076 = SURFACE_SIDE_STYLE ('',( #876 ) ) ;
#1077 = SURFACE_STYLE_USAGE ( .BOTH. , #718 ) ;
#1078 = EDGE_CURVE ( 'NONE', #94, #584, #1125, .T. ) ;
#1079 = COLOUR_RGB ( '',0.7921568627450980005, 0.8196078431372548767, 0.9333333333333333481 ) ;
#1080 =( LENGTH_UNIT ( ) NAMED_UNIT ( * ) SI_UNIT ( .MILLI., .METRE. ) );
#1081 = PRESENTATION_LAYER_ASSIGNMENT (  '', '', ( #934 ) ) ;
#1082 = PRESENTATION_LAYER_ASSIGNMENT (  '', '', ( #291 ) ) ;
#1083 = ORIENTED_EDGE ( 'NONE', *, *, #526, .F. ) ;
#1084 = MECHANICAL_DESIGN_GEOMETRIC_PRESENTATION_REPRESENTATION (  '', ( #670 ), #726 ) ;
#1085 = CIRCLE ( 'NONE', #877, 0.9000000000000002442 ) ;
#1086 = PRESENTATION_LAYER_ASSIGNMENT (  '', '', ( #353 ) ) ;
#1087 = DIRECTION ( 'NONE',  ( 0.0000000000000000000, 0.0000000000000000000, 1.000000000000000000 ) ) ;
#1088 = CARTESIAN_POINT ( 'NONE',  ( 0.0000000000000000000, 0.0000000000000000000, 0.0000000000000000000 ) ) ;
#1089 = CARTESIAN_POINT ( 'NONE',  ( -2.799999999999999822, 2.349999999999999645, 0.4000000000000000777 ) ) ;
#1090 =( NAMED_UNIT ( * ) PLANE_ANGLE_UNIT ( ) SI_UNIT ( $, .RADIAN. ) );
#1091 = ORIENTED_EDGE ( 'NONE', *, *, #1096, .T. ) ;
#1092 =( LENGTH_UNIT ( ) NAMED_UNIT ( * ) SI_UNIT ( .MILLI., .METRE. ) );
#1093 = FACE_OUTER_BOUND ( 'NONE', #1025, .T. ) ;
#1094 = DIRECTION ( 'NONE',  ( 0.0000000000000000000, 0.0000000000000000000, 1.000000000000000000 ) ) ;
#1095 = VERTEX_POINT ( 'NONE', #844 ) ;
#1096 = EDGE_CURVE ( 'NONE', #985, #36, #355, .T. ) ;
#1097 = PLANE ( 'NONE',  #728 ) ;
#1098 = CARTESIAN_POINT ( 'NONE',  ( -2.290000000000000480, 1.590000000000000080, 0.4000000000000001887 ) ) ;
#1099 = PRESENTATION_STYLE_ASSIGNMENT (( #462 ) ) ;
#1100 = LINE ( 'NONE', #292, #121 ) ;
#1101 = ORIENTED_EDGE ( 'NONE', *, *, #990, .F. ) ;
#1102 = AXIS2_PLACEMENT_3D ( 'NONE', #1023, #401, #760 ) ;
#1103 = STYLED_ITEM ( 'NONE', ( #521 ), #184 ) ;
#1104 = DIRECTION ( 'NONE',  ( 0.0000000000000000000, 0.0000000000000000000, 1.000000000000000000 ) ) ;
#1105 = COLOUR_RGB ( '',0.8666666666666666963, 0.7019607843137254388, 0.3450980392156862697 ) ;
#1106 = STYLED_ITEM ( 'NONE', ( #995 ), #682 ) ;
#1107 = AXIS2_PLACEMENT_3D ( 'NONE', #747, #1109, #301 ) ;
#1108 = FILL_AREA_STYLE_COLOUR ( '', #214 ) ;
#1109 = DIRECTION ( 'NONE',  ( -0.0000000000000000000, -0.0000000000000000000, -1.000000000000000000 ) ) ;
#1110 = ORIENTED_EDGE ( 'NONE', *, *, #117, .T. ) ;
#1111 = DIRECTION ( 'NONE',  ( -0.0000000000000000000, -0.0000000000000000000, -1.000000000000000000 ) ) ;
#1112 = CARTESIAN_POINT ( 'NONE',  ( 3.399999999999999911, 2.350000000000000089, 7.299999999999999822 ) ) ;
#1113 = CARTESIAN_POINT ( 'NONE',  ( 2.880436811286763987, -0.4121823583948678871, 7.799999999999999822 ) ) ;
#1114 = EDGE_CURVE ( 'NONE', #41, #826, #1034, .T. ) ;
#1115 = LINE ( 'NONE', #596, #329 ) ;
#1116 = ORIENTED_EDGE ( 'NONE', *, *, #541, .F. ) ;
#1117 = PLANE ( 'NONE',  #1157 ) ;
#1118 = CARTESIAN_POINT ( 'NONE',  ( -2.799999999999999822, -2.350000000000000089, 0.4000000000000000222 ) ) ;
#1119 = ORIENTED_EDGE ( 'NONE', *, *, #1061, .T. ) ;
#1120 = FILL_AREA_STYLE_COLOUR ( '', #799 ) ;
#1121 = UNCERTAINTY_MEASURE_WITH_UNIT (LENGTH_MEASURE( 1.000000000000000082E-05 ), #1015, 'distance_accuracy_value', 'NONE');
#1122 = CIRCLE ( 'NONE', #155, 0.2499999999999997780 ) ;
#1123 = SURFACE_STYLE_USAGE ( .BOTH. , #213 ) ;
#1124 = MECHANICAL_DESIGN_GEOMETRIC_PRESENTATION_REPRESENTATION (  '', ( #706 ), #839 ) ;
#1125 = LINE ( 'NONE', #576, #44 ) ;
#1126 =( GEOMETRIC_REPRESENTATION_CONTEXT ( 3 ) GLOBAL_UNCERTAINTY_ASSIGNED_CONTEXT ( ( #449 ) ) GLOBAL_UNIT_ASSIGNED_CONTEXT ( ( #887, #79, #629 ) ) REPRESENTATION_CONTEXT ( 'NONE', 'WORKASPACE' ) );
#1127 = EDGE_LOOP ( 'NONE', ( #123, #524, #235, #431 ) ) ;
#1128 = CARTESIAN_POINT ( 'NONE',  ( 3.248268353513850471E-15, -0.9499999999999999556, -2.600000000000000533 ) ) ;
#1129 = LINE ( 'NONE', #227, #741 ) ;
#1130 = CARTESIAN_POINT ( 'NONE',  ( 2.799999999999998934, -2.350000000000000089, 0.4000000000000000222 ) ) ;
#1131 = ORIENTED_EDGE ( 'NONE', *, *, #694, .F. ) ;
#1132 = FACE_OUTER_BOUND ( 'NONE', #880, .T. ) ;
#1133 = SURFACE_SIDE_STYLE ('',( #143 ) ) ;
#1134 = UNCERTAINTY_MEASURE_WITH_UNIT (LENGTH_MEASURE( 1.000000000000000082E-05 ), #360, 'distance_accuracy_value', 'NONE');
#1135 = EDGE_CURVE ( 'NONE', #1095, #279, #820, .T. ) ;
#1136 = DIRECTION ( 'NONE',  ( -0.0000000000000000000, -0.0000000000000000000, -1.000000000000000000 ) ) ;
#1137 = DIRECTION ( 'NONE',  ( -1.000000000000000000, 0.0000000000000000000, 0.0000000000000000000 ) ) ;
#1138 = ORIENTED_EDGE ( 'NONE', *, *, #469, .F. ) ;
#1139 = CARTESIAN_POINT ( 'NONE',  ( -2.540000000000000036, 1.590000000000000080, -2.600000000000000533 ) ) ;
#1140 = ADVANCED_FACE ( 'NONE', ( #1142 ), #335, .F. ) ;
#1141 = SURFACE_SIDE_STYLE ('',( #57 ) ) ;
#1142 = FACE_OUTER_BOUND ( 'NONE', #1055, .T. ) ;
#1143 = CIRCLE ( 'NONE', #485, 0.9000000000000002442 ) ;
#1144 = EDGE_LOOP ( 'NONE', ( #1091, #80 ) ) ;
#1145 = AXIS2_PLACEMENT_3D ( 'NONE', #1018, #230, #1043 ) ;
#1146 = DIRECTION ( 'NONE',  ( 0.0000000000000000000, -0.0000000000000000000, -1.000000000000000000 ) ) ;
#1147 = FILL_AREA_STYLE_COLOUR ( '', #116 ) ;
#1148 = EDGE_CURVE ( 'NONE', #1155, #989, #975, .T. ) ;
#1149 = ORIENTED_EDGE ( 'NONE', *, *, #869, .F. ) ;
#1150 = ORIENTED_EDGE ( 'NONE', *, *, #1148, .F. ) ;
#1151 = AXIS2_PLACEMENT_3D ( 'NONE', #1118, #937, #48 ) ;
#1152 = FILL_AREA_STYLE ('',( #1147 ) ) ;
#1153 = VECTOR ( 'NONE', #623, 1000.000000000000000 ) ;
#1154 = SURFACE_STYLE_USAGE ( .BOTH. , #252 ) ;
#1155 = VERTEX_POINT ( 'NONE', #1169 ) ;
#1156 = AXIS2_PLACEMENT_3D ( 'NONE', #1139, #255, #886 ) ;
#1157 = AXIS2_PLACEMENT_3D ( 'NONE', #771, #601, #507 ) ;
#1158 = COLOUR_RGB ( '',0.0000000000000000000, 0.0000000000000000000, 1.000000000000000000 ) ;
#1159 = CARTESIAN_POINT ( 'NONE',  ( -3.399999999999999911, -2.350000000000000089, 7.299999999999999822 ) ) ;
#1160 = APPLICATION_CONTEXT ( 'automotive_design' ) ;
#1161 =( NAMED_UNIT ( * ) SI_UNIT ( $, .STERADIAN. ) SOLID_ANGLE_UNIT ( ) );
#1162 = EDGE_LOOP ( 'NONE', ( #441, #14, #874, #662 ) ) ;
#1163 = CARTESIAN_POINT ( 'NONE',  ( 1.478837179452419326, -1.468363437586222675, 7.799999999999999822 ) ) ;
#1164 = PRODUCT_DEFINITION_CONTEXT ( 'detailed design', #1160, 'design' ) ;
#1165 = EDGE_CURVE ( 'NONE', #584, #190, #1122, .T. ) ;
#1166 = PRODUCT_DEFINITION_SHAPE ( 'NONE', 'NONE',  #248 ) ;
#1167 = SURFACE_SIDE_STYLE ('',( #650 ) ) ;
#1168 = DIRECTION ( 'NONE',  ( -1.000000000000000000, 0.0000000000000000000, -0.0000000000000000000 ) ) ;
#1169 = CARTESIAN_POINT ( 'NONE',  ( 3.121162820547585870, -0.7316365624137788348, 7.799999999999999822 ) ) ;
#1170 =( NAMED_UNIT ( * ) SI_UNIT ( $, .STERADIAN. ) SOLID_ANGLE_UNIT ( ) );
#1171 = DIRECTION ( 'NONE',  ( -1.000000000000000000, 0.0000000000000000000, 0.0000000000000000000 ) ) ;
#1172 = ORIENTED_EDGE ( 'NONE', *, *, #277, .F. ) ;
#1173 = PRESENTATION_STYLE_ASSIGNMENT (( #807 ) ) ;
#1174 = MECHANICAL_DESIGN_GEOMETRIC_PRESENTATION_REPRESENTATION (  '', ( #348 ), #1009 ) ;
#1175 = CIRCLE ( 'NONE', #575, 0.2499999999999997780 ) ;
#1176 = CARTESIAN_POINT ( 'NONE',  ( -3.399999999999999911, -2.350000000000000089, 7.299999999999999822 ) ) ;
#1177 = STYLED_ITEM ( 'NONE', ( #893 ), #489 ) ;
#1178 = ORIENTED_EDGE ( 'NONE', *, *, #511, .T. ) ;
#1179 = MECHANICAL_DESIGN_GEOMETRIC_PRESENTATION_REPRESENTATION (  '', ( #240 ), #556 ) ;
#1180 = LINE ( 'NONE', #451, #219 ) ;
ENDSEC;
END-ISO-10303-21;
